EESchema Schematic File Version 2
LIBS:power
LIBS:device
LIBS:transistors
LIBS:conn
LIBS:linear
LIBS:regul
LIBS:74xx
LIBS:cmos4000
LIBS:adc-dac
LIBS:memory
LIBS:xilinx
LIBS:microcontrollers
LIBS:dsp
LIBS:microchip
LIBS:analog_switches
LIBS:motorola
LIBS:texas
LIBS:intel
LIBS:audio
LIBS:interface
LIBS:digital-audio
LIBS:philips
LIBS:display
LIBS:cypress
LIBS:siliconi
LIBS:opto
LIBS:atmel
LIBS:contrib
LIBS:valves
EELAYER 25 0
EELAYER END
$Descr A4 11693 8268
encoding utf-8
Sheet 1 1
Title ""
Date ""
Rev ""
Comp ""
Comment1 ""
Comment2 ""
Comment3 ""
Comment4 ""
$EndDescr
$Comp
L LED D1
U 1 1 5628FDEB
P 9150 950
F 0 "D1" H 9150 1050 50  0000 C CNN
F 1 "LED" H 9150 850 50  0000 C CNN
F 2 "Resistors_SMD:R_1206_HandSoldering" H 9150 950 60  0001 C CNN
F 3 "" H 9150 950 60  0000 C CNN
	1    9150 950 
	1    0    0    -1  
$EndComp
$Comp
L LED D9
U 1 1 5628FE36
P 9700 950
F 0 "D9" H 9700 1050 50  0000 C CNN
F 1 "LED" H 9700 850 50  0000 C CNN
F 2 "Resistors_SMD:R_1206_HandSoldering" H 9700 950 60  0001 C CNN
F 3 "" H 9700 950 60  0000 C CNN
	1    9700 950 
	1    0    0    -1  
$EndComp
$Comp
L LED D17
U 1 1 5628FE61
P 10250 950
F 0 "D17" H 10250 1050 50  0000 C CNN
F 1 "LED" H 10250 850 50  0000 C CNN
F 2 "Resistors_SMD:R_1206_HandSoldering" H 10250 950 60  0001 C CNN
F 3 "" H 10250 950 60  0000 C CNN
	1    10250 950 
	1    0    0    -1  
$EndComp
Wire Wire Line
	9350 950  9500 950 
Wire Wire Line
	9900 950  10050 950 
$Comp
L R R1
U 1 1 5628FEB2
P 10750 950
F 0 "R1" V 10830 950 50  0000 C CNN
F 1 "100" V 10750 950 50  0000 C CNN
F 2 "Resistors_SMD:R_0603_HandSoldering" V 10680 950 30  0001 C CNN
F 3 "" H 10750 950 30  0000 C CNN
	1    10750 950 
	0    1    1    0   
$EndComp
$Comp
L CONN_01X02 P1
U 1 1 5628FEED
P 8600 750
F 0 "P1" H 8600 900 50  0000 C CNN
F 1 "CONN_01X02" V 8700 750 50  0000 C CNN
F 2 "Pin_Headers:Pin_Header_Angled_1x02" H 8600 750 60  0001 C CNN
F 3 "" H 8600 750 60  0000 C CNN
	1    8600 750 
	-1   0    0    1   
$EndComp
Wire Wire Line
	8800 950  8950 950 
$Comp
L LED D2
U 1 1 56290022
P 9150 1250
F 0 "D2" H 9150 1350 50  0000 C CNN
F 1 "LED" H 9150 1150 50  0000 C CNN
F 2 "Resistors_SMD:R_1206_HandSoldering" H 9150 1250 60  0001 C CNN
F 3 "" H 9150 1250 60  0000 C CNN
	1    9150 1250
	1    0    0    -1  
$EndComp
$Comp
L LED D10
U 1 1 56290028
P 9700 1250
F 0 "D10" H 9700 1350 50  0000 C CNN
F 1 "LED" H 9700 1150 50  0000 C CNN
F 2 "Resistors_SMD:R_1206_HandSoldering" H 9700 1250 60  0001 C CNN
F 3 "" H 9700 1250 60  0000 C CNN
	1    9700 1250
	1    0    0    -1  
$EndComp
$Comp
L LED D18
U 1 1 5629002E
P 10250 1250
F 0 "D18" H 10250 1350 50  0000 C CNN
F 1 "LED" H 10250 1150 50  0000 C CNN
F 2 "Resistors_SMD:R_1206_HandSoldering" H 10250 1250 60  0001 C CNN
F 3 "" H 10250 1250 60  0000 C CNN
	1    10250 1250
	1    0    0    -1  
$EndComp
Wire Wire Line
	9350 1250 9500 1250
Wire Wire Line
	9900 1250 10050 1250
Wire Wire Line
	8800 1250 8950 1250
$Comp
L LED D3
U 1 1 562900B1
P 9150 1550
F 0 "D3" H 9150 1650 50  0000 C CNN
F 1 "LED" H 9150 1450 50  0000 C CNN
F 2 "Resistors_SMD:R_1206_HandSoldering" H 9150 1550 60  0001 C CNN
F 3 "" H 9150 1550 60  0000 C CNN
	1    9150 1550
	1    0    0    -1  
$EndComp
$Comp
L LED D11
U 1 1 562900B7
P 9700 1550
F 0 "D11" H 9700 1650 50  0000 C CNN
F 1 "LED" H 9700 1450 50  0000 C CNN
F 2 "Resistors_SMD:R_1206_HandSoldering" H 9700 1550 60  0001 C CNN
F 3 "" H 9700 1550 60  0000 C CNN
	1    9700 1550
	1    0    0    -1  
$EndComp
$Comp
L LED D19
U 1 1 562900BD
P 10250 1550
F 0 "D19" H 10250 1650 50  0000 C CNN
F 1 "LED" H 10250 1450 50  0000 C CNN
F 2 "Resistors_SMD:R_1206_HandSoldering" H 10250 1550 60  0001 C CNN
F 3 "" H 10250 1550 60  0000 C CNN
	1    10250 1550
	1    0    0    -1  
$EndComp
Wire Wire Line
	9350 1550 9500 1550
Wire Wire Line
	9900 1550 10050 1550
Wire Wire Line
	8800 1550 8950 1550
$Comp
L LED D4
U 1 1 56290156
P 9150 1850
F 0 "D4" H 9150 1950 50  0000 C CNN
F 1 "LED" H 9150 1750 50  0000 C CNN
F 2 "Resistors_SMD:R_1206_HandSoldering" H 9150 1850 60  0001 C CNN
F 3 "" H 9150 1850 60  0000 C CNN
	1    9150 1850
	1    0    0    -1  
$EndComp
$Comp
L LED D12
U 1 1 5629015C
P 9700 1850
F 0 "D12" H 9700 1950 50  0000 C CNN
F 1 "LED" H 9700 1750 50  0000 C CNN
F 2 "Resistors_SMD:R_1206_HandSoldering" H 9700 1850 60  0001 C CNN
F 3 "" H 9700 1850 60  0000 C CNN
	1    9700 1850
	1    0    0    -1  
$EndComp
$Comp
L LED D20
U 1 1 56290162
P 10250 1850
F 0 "D20" H 10250 1950 50  0000 C CNN
F 1 "LED" H 10250 1750 50  0000 C CNN
F 2 "Resistors_SMD:R_1206_HandSoldering" H 10250 1850 60  0001 C CNN
F 3 "" H 10250 1850 60  0000 C CNN
	1    10250 1850
	1    0    0    -1  
$EndComp
Wire Wire Line
	9350 1850 9500 1850
Wire Wire Line
	9900 1850 10050 1850
Wire Wire Line
	8800 1850 8950 1850
$Comp
L R R2
U 1 1 562902BB
P 10750 1250
F 0 "R2" V 10830 1250 50  0000 C CNN
F 1 "100" V 10750 1250 50  0000 C CNN
F 2 "Resistors_SMD:R_0603_HandSoldering" V 10680 1250 30  0001 C CNN
F 3 "" H 10750 1250 30  0000 C CNN
	1    10750 1250
	0    1    1    0   
$EndComp
$Comp
L R R3
U 1 1 56290379
P 10750 1550
F 0 "R3" V 10830 1550 50  0000 C CNN
F 1 "100" V 10750 1550 50  0000 C CNN
F 2 "Resistors_SMD:R_0603_HandSoldering" V 10680 1550 30  0001 C CNN
F 3 "" H 10750 1550 30  0000 C CNN
	1    10750 1550
	0    1    1    0   
$EndComp
$Comp
L R R4
U 1 1 5629037F
P 10750 1850
F 0 "R4" V 10830 1850 50  0000 C CNN
F 1 "100" V 10750 1850 50  0000 C CNN
F 2 "Resistors_SMD:R_0603_HandSoldering" V 10680 1850 30  0001 C CNN
F 3 "" H 10750 1850 30  0000 C CNN
	1    10750 1850
	0    1    1    0   
$EndComp
Wire Wire Line
	8800 800  8800 3050
Connection ~ 8800 1250
Connection ~ 8800 1550
Wire Wire Line
	10900 850  10900 3050
Connection ~ 10900 950 
Connection ~ 10900 1250
Connection ~ 10900 1550
Wire Wire Line
	10600 1850 10450 1850
Wire Wire Line
	10600 1550 10450 1550
Wire Wire Line
	10450 1250 10600 1250
Wire Wire Line
	10450 950  10600 950 
$Comp
L LED D5
U 1 1 56291C81
P 9150 2150
F 0 "D5" H 9150 2250 50  0000 C CNN
F 1 "LED" H 9150 2050 50  0000 C CNN
F 2 "Resistors_SMD:R_1206_HandSoldering" H 9150 2150 60  0001 C CNN
F 3 "" H 9150 2150 60  0000 C CNN
	1    9150 2150
	1    0    0    -1  
$EndComp
$Comp
L LED D13
U 1 1 56291C87
P 9700 2150
F 0 "D13" H 9700 2250 50  0000 C CNN
F 1 "LED" H 9700 2050 50  0000 C CNN
F 2 "Resistors_SMD:R_1206_HandSoldering" H 9700 2150 60  0001 C CNN
F 3 "" H 9700 2150 60  0000 C CNN
	1    9700 2150
	1    0    0    -1  
$EndComp
$Comp
L LED D21
U 1 1 56291C8D
P 10250 2150
F 0 "D21" H 10250 2250 50  0000 C CNN
F 1 "LED" H 10250 2050 50  0000 C CNN
F 2 "Resistors_SMD:R_1206_HandSoldering" H 10250 2150 60  0001 C CNN
F 3 "" H 10250 2150 60  0000 C CNN
	1    10250 2150
	1    0    0    -1  
$EndComp
Wire Wire Line
	9350 2150 9500 2150
Wire Wire Line
	9900 2150 10050 2150
$Comp
L R R5
U 1 1 56291C95
P 10750 2150
F 0 "R5" V 10830 2150 50  0000 C CNN
F 1 "100" V 10750 2150 50  0000 C CNN
F 2 "Resistors_SMD:R_0603_HandSoldering" V 10680 2150 30  0001 C CNN
F 3 "" H 10750 2150 30  0000 C CNN
	1    10750 2150
	0    1    1    0   
$EndComp
$Comp
L LED D6
U 1 1 56291CA2
P 9150 2450
F 0 "D6" H 9150 2550 50  0000 C CNN
F 1 "LED" H 9150 2350 50  0000 C CNN
F 2 "Resistors_SMD:R_1206_HandSoldering" H 9150 2450 60  0001 C CNN
F 3 "" H 9150 2450 60  0000 C CNN
	1    9150 2450
	1    0    0    -1  
$EndComp
$Comp
L LED D14
U 1 1 56291CA8
P 9700 2450
F 0 "D14" H 9700 2550 50  0000 C CNN
F 1 "LED" H 9700 2350 50  0000 C CNN
F 2 "Resistors_SMD:R_1206_HandSoldering" H 9700 2450 60  0001 C CNN
F 3 "" H 9700 2450 60  0000 C CNN
	1    9700 2450
	1    0    0    -1  
$EndComp
$Comp
L LED D22
U 1 1 56291CAE
P 10250 2450
F 0 "D22" H 10250 2550 50  0000 C CNN
F 1 "LED" H 10250 2350 50  0000 C CNN
F 2 "Resistors_SMD:R_1206_HandSoldering" H 10250 2450 60  0001 C CNN
F 3 "" H 10250 2450 60  0000 C CNN
	1    10250 2450
	1    0    0    -1  
$EndComp
Wire Wire Line
	9350 2450 9500 2450
Wire Wire Line
	9900 2450 10050 2450
Wire Wire Line
	8800 2450 8950 2450
$Comp
L LED D7
U 1 1 56291CB7
P 9150 2750
F 0 "D7" H 9150 2850 50  0000 C CNN
F 1 "LED" H 9150 2650 50  0000 C CNN
F 2 "Resistors_SMD:R_1206_HandSoldering" H 9150 2750 60  0001 C CNN
F 3 "" H 9150 2750 60  0000 C CNN
	1    9150 2750
	1    0    0    -1  
$EndComp
$Comp
L LED D15
U 1 1 56291CBD
P 9700 2750
F 0 "D15" H 9700 2850 50  0000 C CNN
F 1 "LED" H 9700 2650 50  0000 C CNN
F 2 "Resistors_SMD:R_1206_HandSoldering" H 9700 2750 60  0001 C CNN
F 3 "" H 9700 2750 60  0000 C CNN
	1    9700 2750
	1    0    0    -1  
$EndComp
$Comp
L LED D23
U 1 1 56291CC3
P 10250 2750
F 0 "D23" H 10250 2850 50  0000 C CNN
F 1 "LED" H 10250 2650 50  0000 C CNN
F 2 "Resistors_SMD:R_1206_HandSoldering" H 10250 2750 60  0001 C CNN
F 3 "" H 10250 2750 60  0000 C CNN
	1    10250 2750
	1    0    0    -1  
$EndComp
Wire Wire Line
	9350 2750 9500 2750
Wire Wire Line
	9900 2750 10050 2750
Wire Wire Line
	8800 2750 8950 2750
$Comp
L LED D8
U 1 1 56291CCC
P 9150 3050
F 0 "D8" H 9150 3150 50  0000 C CNN
F 1 "LED" H 9150 2950 50  0000 C CNN
F 2 "Resistors_SMD:R_1206_HandSoldering" H 9150 3050 60  0001 C CNN
F 3 "" H 9150 3050 60  0000 C CNN
	1    9150 3050
	1    0    0    -1  
$EndComp
$Comp
L LED D16
U 1 1 56291CD2
P 9700 3050
F 0 "D16" H 9700 3150 50  0000 C CNN
F 1 "LED" H 9700 2950 50  0000 C CNN
F 2 "Resistors_SMD:R_1206_HandSoldering" H 9700 3050 60  0001 C CNN
F 3 "" H 9700 3050 60  0000 C CNN
	1    9700 3050
	1    0    0    -1  
$EndComp
$Comp
L LED D24
U 1 1 56291CD8
P 10250 3050
F 0 "D24" H 10250 3150 50  0000 C CNN
F 1 "LED" H 10250 2950 50  0000 C CNN
F 2 "Resistors_SMD:R_1206_HandSoldering" H 10250 3050 60  0001 C CNN
F 3 "" H 10250 3050 60  0000 C CNN
	1    10250 3050
	1    0    0    -1  
$EndComp
Wire Wire Line
	9350 3050 9500 3050
Wire Wire Line
	9900 3050 10050 3050
Wire Wire Line
	8800 3050 8950 3050
$Comp
L R R6
U 1 1 56291CE1
P 10750 2450
F 0 "R6" V 10830 2450 50  0000 C CNN
F 1 "100" V 10750 2450 50  0000 C CNN
F 2 "Resistors_SMD:R_0603_HandSoldering" V 10680 2450 30  0001 C CNN
F 3 "" H 10750 2450 30  0000 C CNN
	1    10750 2450
	0    1    1    0   
$EndComp
$Comp
L R R7
U 1 1 56291CE7
P 10750 2750
F 0 "R7" V 10830 2750 50  0000 C CNN
F 1 "100" V 10750 2750 50  0000 C CNN
F 2 "Resistors_SMD:R_0603_HandSoldering" V 10680 2750 30  0001 C CNN
F 3 "" H 10750 2750 30  0000 C CNN
	1    10750 2750
	0    1    1    0   
$EndComp
$Comp
L R R8
U 1 1 56291CED
P 10750 3050
F 0 "R8" V 10830 3050 50  0000 C CNN
F 1 "100" V 10750 3050 50  0000 C CNN
F 2 "Resistors_SMD:R_0603_HandSoldering" V 10680 3050 30  0001 C CNN
F 3 "" H 10750 3050 30  0000 C CNN
	1    10750 3050
	0    1    1    0   
$EndComp
Connection ~ 8800 2450
Connection ~ 8800 2750
Connection ~ 10900 2150
Connection ~ 10900 2450
Connection ~ 10900 2750
Wire Wire Line
	10600 3050 10450 3050
Wire Wire Line
	10600 2750 10450 2750
Wire Wire Line
	10450 2450 10600 2450
Wire Wire Line
	10450 2150 10600 2150
Connection ~ 8800 1850
Connection ~ 10900 1850
Wire Wire Line
	8800 700  10900 700 
Connection ~ 8800 950 
Wire Wire Line
	8950 2150 8800 2150
Connection ~ 8800 2150
$Comp
L CONN_01X02 P2
U 1 1 56292A82
P 11100 750
F 0 "P2" H 11100 900 50  0000 C CNN
F 1 "CONN_01X02" V 11200 750 50  0000 C CNN
F 2 "Pin_Headers:Pin_Header_Angled_1x02" H 11100 750 60  0001 C CNN
F 3 "" H 11100 750 60  0000 C CNN
	1    11100 750 
	1    0    0    -1  
$EndComp
Wire Wire Line
	10900 800  8800 800 
Wire Wire Line
	10900 850  10800 850 
Wire Wire Line
	10800 850  10800 700 
Connection ~ 10800 700 
$EndSCHEMATC
