(kicad_pcb (version 4) (host pcbnew "(2015-10-16 BZR 6271)-product")

  (general
    (links 42)
    (no_connects 0)
    (area 34.672001 18.466999 250.397001 120.048001)
    (thickness 1.6)
    (drawings 6)
    (tracks 80)
    (zones 0)
    (modules 34)
    (nets 27)
  )

  (page A4)
  (layers
    (0 F.Cu signal)
    (31 B.Cu signal)
    (32 B.Adhes user)
    (33 F.Adhes user)
    (34 B.Paste user)
    (35 F.Paste user)
    (36 B.SilkS user)
    (37 F.SilkS user)
    (38 B.Mask user)
    (39 F.Mask user)
    (40 Dwgs.User user)
    (41 Cmts.User user)
    (42 Eco1.User user)
    (43 Eco2.User user)
    (44 Edge.Cuts user)
    (45 Margin user)
    (46 B.CrtYd user)
    (47 F.CrtYd user)
    (48 B.Fab user)
    (49 F.Fab user)
  )

  (setup
    (last_trace_width 1)
    (trace_clearance 0.2)
    (zone_clearance 0.508)
    (zone_45_only no)
    (trace_min 0.2)
    (segment_width 0.2)
    (edge_width 0.15)
    (via_size 0.6)
    (via_drill 0.4)
    (via_min_size 0.4)
    (via_min_drill 0.3)
    (uvia_size 0.3)
    (uvia_drill 0.1)
    (uvias_allowed no)
    (uvia_min_size 0.2)
    (uvia_min_drill 0.1)
    (pcb_text_width 0.3)
    (pcb_text_size 1.5 1.5)
    (mod_edge_width 0.15)
    (mod_text_size 1 1)
    (mod_text_width 0.15)
    (pad_size 1.524 1.524)
    (pad_drill 0.762)
    (pad_to_mask_clearance 0.2)
    (aux_axis_origin 45.212 42.672)
    (grid_origin 54.102 101.092)
    (visible_elements FFFFEF7F)
    (pcbplotparams
      (layerselection 0x00000_80000001)
      (usegerberextensions false)
      (excludeedgelayer false)
      (linewidth 0.100000)
      (plotframeref false)
      (viasonmask false)
      (mode 1)
      (useauxorigin false)
      (hpglpennumber 1)
      (hpglpenspeed 20)
      (hpglpendiameter 15)
      (hpglpenoverlay 2)
      (psnegative false)
      (psa4output false)
      (plotreference false)
      (plotvalue false)
      (plotinvisibletext false)
      (padsonsilk false)
      (subtractmaskfromsilk false)
      (outputformat 2)
      (mirror true)
      (drillshape 1)
      (scaleselection 1)
      (outputdirectory pdf/))
  )

  (net 0 "")
  (net 1 "Net-(D1-Pad1)")
  (net 2 "Net-(D1-Pad2)")
  (net 3 "Net-(D10-Pad1)")
  (net 4 "Net-(D11-Pad1)")
  (net 5 "Net-(D12-Pad1)")
  (net 6 "Net-(D13-Pad1)")
  (net 7 "Net-(D14-Pad1)")
  (net 8 "Net-(D15-Pad1)")
  (net 9 "Net-(D16-Pad1)")
  (net 10 "Net-(D17-Pad1)")
  (net 11 "Net-(D10-Pad2)")
  (net 12 "Net-(D11-Pad2)")
  (net 13 "Net-(D12-Pad2)")
  (net 14 "Net-(D13-Pad2)")
  (net 15 "Net-(D14-Pad2)")
  (net 16 "Net-(D15-Pad2)")
  (net 17 "Net-(D16-Pad2)")
  (net 18 "Net-(D17-Pad2)")
  (net 19 "Net-(D18-Pad2)")
  (net 20 "Net-(D19-Pad2)")
  (net 21 "Net-(D20-Pad2)")
  (net 22 "Net-(D21-Pad2)")
  (net 23 "Net-(D22-Pad2)")
  (net 24 "Net-(D23-Pad2)")
  (net 25 "Net-(D24-Pad2)")
  (net 26 "Net-(P1-Pad2)")

  (net_class Default "This is the default net class."
    (clearance 0.2)
    (trace_width 1)
    (via_dia 0.6)
    (via_drill 0.4)
    (uvia_dia 0.3)
    (uvia_drill 0.1)
    (add_net "Net-(D1-Pad1)")
    (add_net "Net-(D1-Pad2)")
    (add_net "Net-(D10-Pad1)")
    (add_net "Net-(D10-Pad2)")
    (add_net "Net-(D11-Pad1)")
    (add_net "Net-(D11-Pad2)")
    (add_net "Net-(D12-Pad1)")
    (add_net "Net-(D12-Pad2)")
    (add_net "Net-(D13-Pad1)")
    (add_net "Net-(D13-Pad2)")
    (add_net "Net-(D14-Pad1)")
    (add_net "Net-(D14-Pad2)")
    (add_net "Net-(D15-Pad1)")
    (add_net "Net-(D15-Pad2)")
    (add_net "Net-(D16-Pad1)")
    (add_net "Net-(D16-Pad2)")
    (add_net "Net-(D17-Pad1)")
    (add_net "Net-(D17-Pad2)")
    (add_net "Net-(D18-Pad2)")
    (add_net "Net-(D19-Pad2)")
    (add_net "Net-(D20-Pad2)")
    (add_net "Net-(D21-Pad2)")
    (add_net "Net-(D22-Pad2)")
    (add_net "Net-(D23-Pad2)")
    (add_net "Net-(D24-Pad2)")
    (add_net "Net-(P1-Pad2)")
  )

  (module Resistors_SMD:R_1206_HandSoldering (layer F.Cu) (tedit 5418A20D) (tstamp 56290283)
    (at 69.342 96.012)
    (descr "Resistor SMD 1206, hand soldering")
    (tags "resistor 1206")
    (path /5628FDEB)
    (attr smd)
    (fp_text reference D1 (at 0 -2.3) (layer F.SilkS)
      (effects (font (size 1 1) (thickness 0.15)))
    )
    (fp_text value LED (at 0 2.3) (layer F.Fab)
      (effects (font (size 1 1) (thickness 0.15)))
    )
    (fp_line (start -3.3 -1.2) (end 3.3 -1.2) (layer F.CrtYd) (width 0.05))
    (fp_line (start -3.3 1.2) (end 3.3 1.2) (layer F.CrtYd) (width 0.05))
    (fp_line (start -3.3 -1.2) (end -3.3 1.2) (layer F.CrtYd) (width 0.05))
    (fp_line (start 3.3 -1.2) (end 3.3 1.2) (layer F.CrtYd) (width 0.05))
    (fp_line (start 1 1.075) (end -1 1.075) (layer F.SilkS) (width 0.15))
    (fp_line (start -1 -1.075) (end 1 -1.075) (layer F.SilkS) (width 0.15))
    (pad 1 smd rect (at -2 0) (size 2 1.7) (layers F.Cu F.Paste F.Mask)
      (net 1 "Net-(D1-Pad1)"))
    (pad 2 smd rect (at 2 0) (size 2 1.7) (layers F.Cu F.Paste F.Mask)
      (net 2 "Net-(D1-Pad2)"))
    (model Resistors_SMD.3dshapes/R_1206_HandSoldering.wrl
      (at (xyz 0 0 0))
      (scale (xyz 1 1 1))
      (rotate (xyz 0 0 0))
    )
  )

  (module Resistors_SMD:R_1206_HandSoldering (layer F.Cu) (tedit 5418A20D) (tstamp 56290289)
    (at 115.062 96.012)
    (descr "Resistor SMD 1206, hand soldering")
    (tags "resistor 1206")
    (path /56290022)
    (attr smd)
    (fp_text reference D2 (at 0 -2.3) (layer F.SilkS)
      (effects (font (size 1 1) (thickness 0.15)))
    )
    (fp_text value LED (at 0 2.3) (layer F.Fab)
      (effects (font (size 1 1) (thickness 0.15)))
    )
    (fp_line (start -3.3 -1.2) (end 3.3 -1.2) (layer F.CrtYd) (width 0.05))
    (fp_line (start -3.3 1.2) (end 3.3 1.2) (layer F.CrtYd) (width 0.05))
    (fp_line (start -3.3 -1.2) (end -3.3 1.2) (layer F.CrtYd) (width 0.05))
    (fp_line (start 3.3 -1.2) (end 3.3 1.2) (layer F.CrtYd) (width 0.05))
    (fp_line (start 1 1.075) (end -1 1.075) (layer F.SilkS) (width 0.15))
    (fp_line (start -1 -1.075) (end 1 -1.075) (layer F.SilkS) (width 0.15))
    (pad 1 smd rect (at -2 0) (size 2 1.7) (layers F.Cu F.Paste F.Mask)
      (net 1 "Net-(D1-Pad1)"))
    (pad 2 smd rect (at 2 0) (size 2 1.7) (layers F.Cu F.Paste F.Mask)
      (net 3 "Net-(D10-Pad1)"))
    (model Resistors_SMD.3dshapes/R_1206_HandSoldering.wrl
      (at (xyz 0 0 0))
      (scale (xyz 1 1 1))
      (rotate (xyz 0 0 0))
    )
  )

  (module Resistors_SMD:R_1206_HandSoldering (layer F.Cu) (tedit 5418A20D) (tstamp 5629028F)
    (at 160.782 96.012)
    (descr "Resistor SMD 1206, hand soldering")
    (tags "resistor 1206")
    (path /562900B1)
    (attr smd)
    (fp_text reference D3 (at 0 -2.3) (layer F.SilkS)
      (effects (font (size 1 1) (thickness 0.15)))
    )
    (fp_text value LED (at 0 2.3) (layer F.Fab)
      (effects (font (size 1 1) (thickness 0.15)))
    )
    (fp_line (start -3.3 -1.2) (end 3.3 -1.2) (layer F.CrtYd) (width 0.05))
    (fp_line (start -3.3 1.2) (end 3.3 1.2) (layer F.CrtYd) (width 0.05))
    (fp_line (start -3.3 -1.2) (end -3.3 1.2) (layer F.CrtYd) (width 0.05))
    (fp_line (start 3.3 -1.2) (end 3.3 1.2) (layer F.CrtYd) (width 0.05))
    (fp_line (start 1 1.075) (end -1 1.075) (layer F.SilkS) (width 0.15))
    (fp_line (start -1 -1.075) (end 1 -1.075) (layer F.SilkS) (width 0.15))
    (pad 1 smd rect (at -2 0) (size 2 1.7) (layers F.Cu F.Paste F.Mask)
      (net 1 "Net-(D1-Pad1)"))
    (pad 2 smd rect (at 2 0) (size 2 1.7) (layers F.Cu F.Paste F.Mask)
      (net 4 "Net-(D11-Pad1)"))
    (model Resistors_SMD.3dshapes/R_1206_HandSoldering.wrl
      (at (xyz 0 0 0))
      (scale (xyz 1 1 1))
      (rotate (xyz 0 0 0))
    )
  )

  (module Resistors_SMD:R_1206_HandSoldering (layer F.Cu) (tedit 5418A20D) (tstamp 56290295)
    (at 206.502 96.012)
    (descr "Resistor SMD 1206, hand soldering")
    (tags "resistor 1206")
    (path /56290156)
    (attr smd)
    (fp_text reference D4 (at 0 -2.3) (layer F.SilkS)
      (effects (font (size 1 1) (thickness 0.15)))
    )
    (fp_text value LED (at 0 2.3) (layer F.Fab)
      (effects (font (size 1 1) (thickness 0.15)))
    )
    (fp_line (start -3.3 -1.2) (end 3.3 -1.2) (layer F.CrtYd) (width 0.05))
    (fp_line (start -3.3 1.2) (end 3.3 1.2) (layer F.CrtYd) (width 0.05))
    (fp_line (start -3.3 -1.2) (end -3.3 1.2) (layer F.CrtYd) (width 0.05))
    (fp_line (start 3.3 -1.2) (end 3.3 1.2) (layer F.CrtYd) (width 0.05))
    (fp_line (start 1 1.075) (end -1 1.075) (layer F.SilkS) (width 0.15))
    (fp_line (start -1 -1.075) (end 1 -1.075) (layer F.SilkS) (width 0.15))
    (pad 1 smd rect (at -2 0) (size 2 1.7) (layers F.Cu F.Paste F.Mask)
      (net 1 "Net-(D1-Pad1)"))
    (pad 2 smd rect (at 2 0) (size 2 1.7) (layers F.Cu F.Paste F.Mask)
      (net 5 "Net-(D12-Pad1)"))
    (model Resistors_SMD.3dshapes/R_1206_HandSoldering.wrl
      (at (xyz 0 0 0))
      (scale (xyz 1 1 1))
      (rotate (xyz 0 0 0))
    )
  )

  (module Resistors_SMD:R_1206_HandSoldering (layer F.Cu) (tedit 5418A20D) (tstamp 5629029B)
    (at 69.342 88.392)
    (descr "Resistor SMD 1206, hand soldering")
    (tags "resistor 1206")
    (path /56291C81)
    (attr smd)
    (fp_text reference D5 (at 0 -2.3) (layer F.SilkS)
      (effects (font (size 1 1) (thickness 0.15)))
    )
    (fp_text value LED (at 0 2.3) (layer F.Fab)
      (effects (font (size 1 1) (thickness 0.15)))
    )
    (fp_line (start -3.3 -1.2) (end 3.3 -1.2) (layer F.CrtYd) (width 0.05))
    (fp_line (start -3.3 1.2) (end 3.3 1.2) (layer F.CrtYd) (width 0.05))
    (fp_line (start -3.3 -1.2) (end -3.3 1.2) (layer F.CrtYd) (width 0.05))
    (fp_line (start 3.3 -1.2) (end 3.3 1.2) (layer F.CrtYd) (width 0.05))
    (fp_line (start 1 1.075) (end -1 1.075) (layer F.SilkS) (width 0.15))
    (fp_line (start -1 -1.075) (end 1 -1.075) (layer F.SilkS) (width 0.15))
    (pad 1 smd rect (at -2 0) (size 2 1.7) (layers F.Cu F.Paste F.Mask)
      (net 1 "Net-(D1-Pad1)"))
    (pad 2 smd rect (at 2 0) (size 2 1.7) (layers F.Cu F.Paste F.Mask)
      (net 6 "Net-(D13-Pad1)"))
    (model Resistors_SMD.3dshapes/R_1206_HandSoldering.wrl
      (at (xyz 0 0 0))
      (scale (xyz 1 1 1))
      (rotate (xyz 0 0 0))
    )
  )

  (module Resistors_SMD:R_1206_HandSoldering (layer F.Cu) (tedit 5418A20D) (tstamp 562902A1)
    (at 115.062 88.392)
    (descr "Resistor SMD 1206, hand soldering")
    (tags "resistor 1206")
    (path /56291CA2)
    (attr smd)
    (fp_text reference D6 (at 0 -2.3) (layer F.SilkS)
      (effects (font (size 1 1) (thickness 0.15)))
    )
    (fp_text value LED (at 0 2.3) (layer F.Fab)
      (effects (font (size 1 1) (thickness 0.15)))
    )
    (fp_line (start -3.3 -1.2) (end 3.3 -1.2) (layer F.CrtYd) (width 0.05))
    (fp_line (start -3.3 1.2) (end 3.3 1.2) (layer F.CrtYd) (width 0.05))
    (fp_line (start -3.3 -1.2) (end -3.3 1.2) (layer F.CrtYd) (width 0.05))
    (fp_line (start 3.3 -1.2) (end 3.3 1.2) (layer F.CrtYd) (width 0.05))
    (fp_line (start 1 1.075) (end -1 1.075) (layer F.SilkS) (width 0.15))
    (fp_line (start -1 -1.075) (end 1 -1.075) (layer F.SilkS) (width 0.15))
    (pad 1 smd rect (at -2 0) (size 2 1.7) (layers F.Cu F.Paste F.Mask)
      (net 1 "Net-(D1-Pad1)"))
    (pad 2 smd rect (at 2 0) (size 2 1.7) (layers F.Cu F.Paste F.Mask)
      (net 7 "Net-(D14-Pad1)"))
    (model Resistors_SMD.3dshapes/R_1206_HandSoldering.wrl
      (at (xyz 0 0 0))
      (scale (xyz 1 1 1))
      (rotate (xyz 0 0 0))
    )
  )

  (module Resistors_SMD:R_1206_HandSoldering (layer F.Cu) (tedit 5418A20D) (tstamp 562902A7)
    (at 160.782 88.392)
    (descr "Resistor SMD 1206, hand soldering")
    (tags "resistor 1206")
    (path /56291CB7)
    (attr smd)
    (fp_text reference D7 (at 0 -2.3) (layer F.SilkS)
      (effects (font (size 1 1) (thickness 0.15)))
    )
    (fp_text value LED (at 0 2.3) (layer F.Fab)
      (effects (font (size 1 1) (thickness 0.15)))
    )
    (fp_line (start -3.3 -1.2) (end 3.3 -1.2) (layer F.CrtYd) (width 0.05))
    (fp_line (start -3.3 1.2) (end 3.3 1.2) (layer F.CrtYd) (width 0.05))
    (fp_line (start -3.3 -1.2) (end -3.3 1.2) (layer F.CrtYd) (width 0.05))
    (fp_line (start 3.3 -1.2) (end 3.3 1.2) (layer F.CrtYd) (width 0.05))
    (fp_line (start 1 1.075) (end -1 1.075) (layer F.SilkS) (width 0.15))
    (fp_line (start -1 -1.075) (end 1 -1.075) (layer F.SilkS) (width 0.15))
    (pad 1 smd rect (at -2 0) (size 2 1.7) (layers F.Cu F.Paste F.Mask)
      (net 1 "Net-(D1-Pad1)"))
    (pad 2 smd rect (at 2 0) (size 2 1.7) (layers F.Cu F.Paste F.Mask)
      (net 8 "Net-(D15-Pad1)"))
    (model Resistors_SMD.3dshapes/R_1206_HandSoldering.wrl
      (at (xyz 0 0 0))
      (scale (xyz 1 1 1))
      (rotate (xyz 0 0 0))
    )
  )

  (module Resistors_SMD:R_1206_HandSoldering (layer F.Cu) (tedit 5418A20D) (tstamp 562902AD)
    (at 206.502 88.392)
    (descr "Resistor SMD 1206, hand soldering")
    (tags "resistor 1206")
    (path /56291CCC)
    (attr smd)
    (fp_text reference D8 (at 0 -2.3) (layer F.SilkS)
      (effects (font (size 1 1) (thickness 0.15)))
    )
    (fp_text value LED (at 0 2.3) (layer F.Fab)
      (effects (font (size 1 1) (thickness 0.15)))
    )
    (fp_line (start -3.3 -1.2) (end 3.3 -1.2) (layer F.CrtYd) (width 0.05))
    (fp_line (start -3.3 1.2) (end 3.3 1.2) (layer F.CrtYd) (width 0.05))
    (fp_line (start -3.3 -1.2) (end -3.3 1.2) (layer F.CrtYd) (width 0.05))
    (fp_line (start 3.3 -1.2) (end 3.3 1.2) (layer F.CrtYd) (width 0.05))
    (fp_line (start 1 1.075) (end -1 1.075) (layer F.SilkS) (width 0.15))
    (fp_line (start -1 -1.075) (end 1 -1.075) (layer F.SilkS) (width 0.15))
    (pad 1 smd rect (at -2 0) (size 2 1.7) (layers F.Cu F.Paste F.Mask)
      (net 1 "Net-(D1-Pad1)"))
    (pad 2 smd rect (at 2 0) (size 2 1.7) (layers F.Cu F.Paste F.Mask)
      (net 9 "Net-(D16-Pad1)"))
    (model Resistors_SMD.3dshapes/R_1206_HandSoldering.wrl
      (at (xyz 0 0 0))
      (scale (xyz 1 1 1))
      (rotate (xyz 0 0 0))
    )
  )

  (module Resistors_SMD:R_1206_HandSoldering (layer F.Cu) (tedit 5418A20D) (tstamp 562902B3)
    (at 84.582 96.012)
    (descr "Resistor SMD 1206, hand soldering")
    (tags "resistor 1206")
    (path /5628FE36)
    (attr smd)
    (fp_text reference D9 (at 0 -2.3) (layer F.SilkS)
      (effects (font (size 1 1) (thickness 0.15)))
    )
    (fp_text value LED (at 0 2.3) (layer F.Fab)
      (effects (font (size 1 1) (thickness 0.15)))
    )
    (fp_line (start -3.3 -1.2) (end 3.3 -1.2) (layer F.CrtYd) (width 0.05))
    (fp_line (start -3.3 1.2) (end 3.3 1.2) (layer F.CrtYd) (width 0.05))
    (fp_line (start -3.3 -1.2) (end -3.3 1.2) (layer F.CrtYd) (width 0.05))
    (fp_line (start 3.3 -1.2) (end 3.3 1.2) (layer F.CrtYd) (width 0.05))
    (fp_line (start 1 1.075) (end -1 1.075) (layer F.SilkS) (width 0.15))
    (fp_line (start -1 -1.075) (end 1 -1.075) (layer F.SilkS) (width 0.15))
    (pad 1 smd rect (at -2 0) (size 2 1.7) (layers F.Cu F.Paste F.Mask)
      (net 2 "Net-(D1-Pad2)"))
    (pad 2 smd rect (at 2 0) (size 2 1.7) (layers F.Cu F.Paste F.Mask)
      (net 10 "Net-(D17-Pad1)"))
    (model Resistors_SMD.3dshapes/R_1206_HandSoldering.wrl
      (at (xyz 0 0 0))
      (scale (xyz 1 1 1))
      (rotate (xyz 0 0 0))
    )
  )

  (module Resistors_SMD:R_1206_HandSoldering (layer F.Cu) (tedit 5418A20D) (tstamp 562902B9)
    (at 130.302 96.012)
    (descr "Resistor SMD 1206, hand soldering")
    (tags "resistor 1206")
    (path /56290028)
    (attr smd)
    (fp_text reference D10 (at 0 -2.3) (layer F.SilkS)
      (effects (font (size 1 1) (thickness 0.15)))
    )
    (fp_text value LED (at 0 2.3) (layer F.Fab)
      (effects (font (size 1 1) (thickness 0.15)))
    )
    (fp_line (start -3.3 -1.2) (end 3.3 -1.2) (layer F.CrtYd) (width 0.05))
    (fp_line (start -3.3 1.2) (end 3.3 1.2) (layer F.CrtYd) (width 0.05))
    (fp_line (start -3.3 -1.2) (end -3.3 1.2) (layer F.CrtYd) (width 0.05))
    (fp_line (start 3.3 -1.2) (end 3.3 1.2) (layer F.CrtYd) (width 0.05))
    (fp_line (start 1 1.075) (end -1 1.075) (layer F.SilkS) (width 0.15))
    (fp_line (start -1 -1.075) (end 1 -1.075) (layer F.SilkS) (width 0.15))
    (pad 1 smd rect (at -2 0) (size 2 1.7) (layers F.Cu F.Paste F.Mask)
      (net 3 "Net-(D10-Pad1)"))
    (pad 2 smd rect (at 2 0) (size 2 1.7) (layers F.Cu F.Paste F.Mask)
      (net 11 "Net-(D10-Pad2)"))
    (model Resistors_SMD.3dshapes/R_1206_HandSoldering.wrl
      (at (xyz 0 0 0))
      (scale (xyz 1 1 1))
      (rotate (xyz 0 0 0))
    )
  )

  (module Resistors_SMD:R_1206_HandSoldering (layer F.Cu) (tedit 5418A20D) (tstamp 562902BF)
    (at 176.022 96.012)
    (descr "Resistor SMD 1206, hand soldering")
    (tags "resistor 1206")
    (path /562900B7)
    (attr smd)
    (fp_text reference D11 (at 0 -2.3) (layer F.SilkS)
      (effects (font (size 1 1) (thickness 0.15)))
    )
    (fp_text value LED (at 0 2.3) (layer F.Fab)
      (effects (font (size 1 1) (thickness 0.15)))
    )
    (fp_line (start -3.3 -1.2) (end 3.3 -1.2) (layer F.CrtYd) (width 0.05))
    (fp_line (start -3.3 1.2) (end 3.3 1.2) (layer F.CrtYd) (width 0.05))
    (fp_line (start -3.3 -1.2) (end -3.3 1.2) (layer F.CrtYd) (width 0.05))
    (fp_line (start 3.3 -1.2) (end 3.3 1.2) (layer F.CrtYd) (width 0.05))
    (fp_line (start 1 1.075) (end -1 1.075) (layer F.SilkS) (width 0.15))
    (fp_line (start -1 -1.075) (end 1 -1.075) (layer F.SilkS) (width 0.15))
    (pad 1 smd rect (at -2 0) (size 2 1.7) (layers F.Cu F.Paste F.Mask)
      (net 4 "Net-(D11-Pad1)"))
    (pad 2 smd rect (at 2 0) (size 2 1.7) (layers F.Cu F.Paste F.Mask)
      (net 12 "Net-(D11-Pad2)"))
    (model Resistors_SMD.3dshapes/R_1206_HandSoldering.wrl
      (at (xyz 0 0 0))
      (scale (xyz 1 1 1))
      (rotate (xyz 0 0 0))
    )
  )

  (module Resistors_SMD:R_1206_HandSoldering (layer F.Cu) (tedit 5418A20D) (tstamp 562902C5)
    (at 221.742 96.012)
    (descr "Resistor SMD 1206, hand soldering")
    (tags "resistor 1206")
    (path /5629015C)
    (attr smd)
    (fp_text reference D12 (at 0 -2.3) (layer F.SilkS)
      (effects (font (size 1 1) (thickness 0.15)))
    )
    (fp_text value LED (at 0 2.3) (layer F.Fab)
      (effects (font (size 1 1) (thickness 0.15)))
    )
    (fp_line (start -3.3 -1.2) (end 3.3 -1.2) (layer F.CrtYd) (width 0.05))
    (fp_line (start -3.3 1.2) (end 3.3 1.2) (layer F.CrtYd) (width 0.05))
    (fp_line (start -3.3 -1.2) (end -3.3 1.2) (layer F.CrtYd) (width 0.05))
    (fp_line (start 3.3 -1.2) (end 3.3 1.2) (layer F.CrtYd) (width 0.05))
    (fp_line (start 1 1.075) (end -1 1.075) (layer F.SilkS) (width 0.15))
    (fp_line (start -1 -1.075) (end 1 -1.075) (layer F.SilkS) (width 0.15))
    (pad 1 smd rect (at -2 0) (size 2 1.7) (layers F.Cu F.Paste F.Mask)
      (net 5 "Net-(D12-Pad1)"))
    (pad 2 smd rect (at 2 0) (size 2 1.7) (layers F.Cu F.Paste F.Mask)
      (net 13 "Net-(D12-Pad2)"))
    (model Resistors_SMD.3dshapes/R_1206_HandSoldering.wrl
      (at (xyz 0 0 0))
      (scale (xyz 1 1 1))
      (rotate (xyz 0 0 0))
    )
  )

  (module Resistors_SMD:R_1206_HandSoldering (layer F.Cu) (tedit 5418A20D) (tstamp 562902CB)
    (at 84.582 88.392)
    (descr "Resistor SMD 1206, hand soldering")
    (tags "resistor 1206")
    (path /56291C87)
    (attr smd)
    (fp_text reference D13 (at 0 -2.3) (layer F.SilkS)
      (effects (font (size 1 1) (thickness 0.15)))
    )
    (fp_text value LED (at 0 2.3) (layer F.Fab)
      (effects (font (size 1 1) (thickness 0.15)))
    )
    (fp_line (start -3.3 -1.2) (end 3.3 -1.2) (layer F.CrtYd) (width 0.05))
    (fp_line (start -3.3 1.2) (end 3.3 1.2) (layer F.CrtYd) (width 0.05))
    (fp_line (start -3.3 -1.2) (end -3.3 1.2) (layer F.CrtYd) (width 0.05))
    (fp_line (start 3.3 -1.2) (end 3.3 1.2) (layer F.CrtYd) (width 0.05))
    (fp_line (start 1 1.075) (end -1 1.075) (layer F.SilkS) (width 0.15))
    (fp_line (start -1 -1.075) (end 1 -1.075) (layer F.SilkS) (width 0.15))
    (pad 1 smd rect (at -2 0) (size 2 1.7) (layers F.Cu F.Paste F.Mask)
      (net 6 "Net-(D13-Pad1)"))
    (pad 2 smd rect (at 2 0) (size 2 1.7) (layers F.Cu F.Paste F.Mask)
      (net 14 "Net-(D13-Pad2)"))
    (model Resistors_SMD.3dshapes/R_1206_HandSoldering.wrl
      (at (xyz 0 0 0))
      (scale (xyz 1 1 1))
      (rotate (xyz 0 0 0))
    )
  )

  (module Resistors_SMD:R_1206_HandSoldering (layer F.Cu) (tedit 5418A20D) (tstamp 562902D1)
    (at 130.302 88.392)
    (descr "Resistor SMD 1206, hand soldering")
    (tags "resistor 1206")
    (path /56291CA8)
    (attr smd)
    (fp_text reference D14 (at 0 -2.3) (layer F.SilkS)
      (effects (font (size 1 1) (thickness 0.15)))
    )
    (fp_text value LED (at 0 2.3) (layer F.Fab)
      (effects (font (size 1 1) (thickness 0.15)))
    )
    (fp_line (start -3.3 -1.2) (end 3.3 -1.2) (layer F.CrtYd) (width 0.05))
    (fp_line (start -3.3 1.2) (end 3.3 1.2) (layer F.CrtYd) (width 0.05))
    (fp_line (start -3.3 -1.2) (end -3.3 1.2) (layer F.CrtYd) (width 0.05))
    (fp_line (start 3.3 -1.2) (end 3.3 1.2) (layer F.CrtYd) (width 0.05))
    (fp_line (start 1 1.075) (end -1 1.075) (layer F.SilkS) (width 0.15))
    (fp_line (start -1 -1.075) (end 1 -1.075) (layer F.SilkS) (width 0.15))
    (pad 1 smd rect (at -2 0) (size 2 1.7) (layers F.Cu F.Paste F.Mask)
      (net 7 "Net-(D14-Pad1)"))
    (pad 2 smd rect (at 2 0) (size 2 1.7) (layers F.Cu F.Paste F.Mask)
      (net 15 "Net-(D14-Pad2)"))
    (model Resistors_SMD.3dshapes/R_1206_HandSoldering.wrl
      (at (xyz 0 0 0))
      (scale (xyz 1 1 1))
      (rotate (xyz 0 0 0))
    )
  )

  (module Resistors_SMD:R_1206_HandSoldering (layer F.Cu) (tedit 5418A20D) (tstamp 562902D7)
    (at 176.022 88.392)
    (descr "Resistor SMD 1206, hand soldering")
    (tags "resistor 1206")
    (path /56291CBD)
    (attr smd)
    (fp_text reference D15 (at 0 -2.3) (layer F.SilkS)
      (effects (font (size 1 1) (thickness 0.15)))
    )
    (fp_text value LED (at 0 2.3) (layer F.Fab)
      (effects (font (size 1 1) (thickness 0.15)))
    )
    (fp_line (start -3.3 -1.2) (end 3.3 -1.2) (layer F.CrtYd) (width 0.05))
    (fp_line (start -3.3 1.2) (end 3.3 1.2) (layer F.CrtYd) (width 0.05))
    (fp_line (start -3.3 -1.2) (end -3.3 1.2) (layer F.CrtYd) (width 0.05))
    (fp_line (start 3.3 -1.2) (end 3.3 1.2) (layer F.CrtYd) (width 0.05))
    (fp_line (start 1 1.075) (end -1 1.075) (layer F.SilkS) (width 0.15))
    (fp_line (start -1 -1.075) (end 1 -1.075) (layer F.SilkS) (width 0.15))
    (pad 1 smd rect (at -2 0) (size 2 1.7) (layers F.Cu F.Paste F.Mask)
      (net 8 "Net-(D15-Pad1)"))
    (pad 2 smd rect (at 2 0) (size 2 1.7) (layers F.Cu F.Paste F.Mask)
      (net 16 "Net-(D15-Pad2)"))
    (model Resistors_SMD.3dshapes/R_1206_HandSoldering.wrl
      (at (xyz 0 0 0))
      (scale (xyz 1 1 1))
      (rotate (xyz 0 0 0))
    )
  )

  (module Resistors_SMD:R_1206_HandSoldering (layer F.Cu) (tedit 5418A20D) (tstamp 562902DD)
    (at 221.742 88.392)
    (descr "Resistor SMD 1206, hand soldering")
    (tags "resistor 1206")
    (path /56291CD2)
    (attr smd)
    (fp_text reference D16 (at 0 -2.3) (layer F.SilkS)
      (effects (font (size 1 1) (thickness 0.15)))
    )
    (fp_text value LED (at 0 2.3) (layer F.Fab)
      (effects (font (size 1 1) (thickness 0.15)))
    )
    (fp_line (start -3.3 -1.2) (end 3.3 -1.2) (layer F.CrtYd) (width 0.05))
    (fp_line (start -3.3 1.2) (end 3.3 1.2) (layer F.CrtYd) (width 0.05))
    (fp_line (start -3.3 -1.2) (end -3.3 1.2) (layer F.CrtYd) (width 0.05))
    (fp_line (start 3.3 -1.2) (end 3.3 1.2) (layer F.CrtYd) (width 0.05))
    (fp_line (start 1 1.075) (end -1 1.075) (layer F.SilkS) (width 0.15))
    (fp_line (start -1 -1.075) (end 1 -1.075) (layer F.SilkS) (width 0.15))
    (pad 1 smd rect (at -2 0) (size 2 1.7) (layers F.Cu F.Paste F.Mask)
      (net 9 "Net-(D16-Pad1)"))
    (pad 2 smd rect (at 2 0) (size 2 1.7) (layers F.Cu F.Paste F.Mask)
      (net 17 "Net-(D16-Pad2)"))
    (model Resistors_SMD.3dshapes/R_1206_HandSoldering.wrl
      (at (xyz 0 0 0))
      (scale (xyz 1 1 1))
      (rotate (xyz 0 0 0))
    )
  )

  (module Resistors_SMD:R_1206_HandSoldering (layer F.Cu) (tedit 5418A20D) (tstamp 562902E3)
    (at 99.822 96.012)
    (descr "Resistor SMD 1206, hand soldering")
    (tags "resistor 1206")
    (path /5628FE61)
    (attr smd)
    (fp_text reference D17 (at 0 -2.3) (layer F.SilkS)
      (effects (font (size 1 1) (thickness 0.15)))
    )
    (fp_text value LED (at 0 2.3) (layer F.Fab)
      (effects (font (size 1 1) (thickness 0.15)))
    )
    (fp_line (start -3.3 -1.2) (end 3.3 -1.2) (layer F.CrtYd) (width 0.05))
    (fp_line (start -3.3 1.2) (end 3.3 1.2) (layer F.CrtYd) (width 0.05))
    (fp_line (start -3.3 -1.2) (end -3.3 1.2) (layer F.CrtYd) (width 0.05))
    (fp_line (start 3.3 -1.2) (end 3.3 1.2) (layer F.CrtYd) (width 0.05))
    (fp_line (start 1 1.075) (end -1 1.075) (layer F.SilkS) (width 0.15))
    (fp_line (start -1 -1.075) (end 1 -1.075) (layer F.SilkS) (width 0.15))
    (pad 1 smd rect (at -2 0) (size 2 1.7) (layers F.Cu F.Paste F.Mask)
      (net 10 "Net-(D17-Pad1)"))
    (pad 2 smd rect (at 2 0) (size 2 1.7) (layers F.Cu F.Paste F.Mask)
      (net 18 "Net-(D17-Pad2)"))
    (model Resistors_SMD.3dshapes/R_1206_HandSoldering.wrl
      (at (xyz 0 0 0))
      (scale (xyz 1 1 1))
      (rotate (xyz 0 0 0))
    )
  )

  (module Resistors_SMD:R_1206_HandSoldering (layer F.Cu) (tedit 5418A20D) (tstamp 562902E9)
    (at 145.542 96.012)
    (descr "Resistor SMD 1206, hand soldering")
    (tags "resistor 1206")
    (path /5629002E)
    (attr smd)
    (fp_text reference D18 (at 0 -2.3) (layer F.SilkS)
      (effects (font (size 1 1) (thickness 0.15)))
    )
    (fp_text value LED (at 0 2.3) (layer F.Fab)
      (effects (font (size 1 1) (thickness 0.15)))
    )
    (fp_line (start -3.3 -1.2) (end 3.3 -1.2) (layer F.CrtYd) (width 0.05))
    (fp_line (start -3.3 1.2) (end 3.3 1.2) (layer F.CrtYd) (width 0.05))
    (fp_line (start -3.3 -1.2) (end -3.3 1.2) (layer F.CrtYd) (width 0.05))
    (fp_line (start 3.3 -1.2) (end 3.3 1.2) (layer F.CrtYd) (width 0.05))
    (fp_line (start 1 1.075) (end -1 1.075) (layer F.SilkS) (width 0.15))
    (fp_line (start -1 -1.075) (end 1 -1.075) (layer F.SilkS) (width 0.15))
    (pad 1 smd rect (at -2 0) (size 2 1.7) (layers F.Cu F.Paste F.Mask)
      (net 11 "Net-(D10-Pad2)"))
    (pad 2 smd rect (at 2 0) (size 2 1.7) (layers F.Cu F.Paste F.Mask)
      (net 19 "Net-(D18-Pad2)"))
    (model Resistors_SMD.3dshapes/R_1206_HandSoldering.wrl
      (at (xyz 0 0 0))
      (scale (xyz 1 1 1))
      (rotate (xyz 0 0 0))
    )
  )

  (module Resistors_SMD:R_1206_HandSoldering (layer F.Cu) (tedit 5418A20D) (tstamp 562902EF)
    (at 191.262 96.012)
    (descr "Resistor SMD 1206, hand soldering")
    (tags "resistor 1206")
    (path /562900BD)
    (attr smd)
    (fp_text reference D19 (at 0 -2.3) (layer F.SilkS)
      (effects (font (size 1 1) (thickness 0.15)))
    )
    (fp_text value LED (at 0 2.3) (layer F.Fab)
      (effects (font (size 1 1) (thickness 0.15)))
    )
    (fp_line (start -3.3 -1.2) (end 3.3 -1.2) (layer F.CrtYd) (width 0.05))
    (fp_line (start -3.3 1.2) (end 3.3 1.2) (layer F.CrtYd) (width 0.05))
    (fp_line (start -3.3 -1.2) (end -3.3 1.2) (layer F.CrtYd) (width 0.05))
    (fp_line (start 3.3 -1.2) (end 3.3 1.2) (layer F.CrtYd) (width 0.05))
    (fp_line (start 1 1.075) (end -1 1.075) (layer F.SilkS) (width 0.15))
    (fp_line (start -1 -1.075) (end 1 -1.075) (layer F.SilkS) (width 0.15))
    (pad 1 smd rect (at -2 0) (size 2 1.7) (layers F.Cu F.Paste F.Mask)
      (net 12 "Net-(D11-Pad2)"))
    (pad 2 smd rect (at 2 0) (size 2 1.7) (layers F.Cu F.Paste F.Mask)
      (net 20 "Net-(D19-Pad2)"))
    (model Resistors_SMD.3dshapes/R_1206_HandSoldering.wrl
      (at (xyz 0 0 0))
      (scale (xyz 1 1 1))
      (rotate (xyz 0 0 0))
    )
  )

  (module Resistors_SMD:R_1206_HandSoldering (layer F.Cu) (tedit 5418A20D) (tstamp 562902F5)
    (at 236.982 96.012)
    (descr "Resistor SMD 1206, hand soldering")
    (tags "resistor 1206")
    (path /56290162)
    (attr smd)
    (fp_text reference D20 (at 0 -2.3) (layer F.SilkS)
      (effects (font (size 1 1) (thickness 0.15)))
    )
    (fp_text value LED (at 0 2.3) (layer F.Fab)
      (effects (font (size 1 1) (thickness 0.15)))
    )
    (fp_line (start -3.3 -1.2) (end 3.3 -1.2) (layer F.CrtYd) (width 0.05))
    (fp_line (start -3.3 1.2) (end 3.3 1.2) (layer F.CrtYd) (width 0.05))
    (fp_line (start -3.3 -1.2) (end -3.3 1.2) (layer F.CrtYd) (width 0.05))
    (fp_line (start 3.3 -1.2) (end 3.3 1.2) (layer F.CrtYd) (width 0.05))
    (fp_line (start 1 1.075) (end -1 1.075) (layer F.SilkS) (width 0.15))
    (fp_line (start -1 -1.075) (end 1 -1.075) (layer F.SilkS) (width 0.15))
    (pad 1 smd rect (at -2 0) (size 2 1.7) (layers F.Cu F.Paste F.Mask)
      (net 13 "Net-(D12-Pad2)"))
    (pad 2 smd rect (at 2 0) (size 2 1.7) (layers F.Cu F.Paste F.Mask)
      (net 21 "Net-(D20-Pad2)"))
    (model Resistors_SMD.3dshapes/R_1206_HandSoldering.wrl
      (at (xyz 0 0 0))
      (scale (xyz 1 1 1))
      (rotate (xyz 0 0 0))
    )
  )

  (module Resistors_SMD:R_1206_HandSoldering (layer F.Cu) (tedit 5418A20D) (tstamp 562902FB)
    (at 99.822 88.392)
    (descr "Resistor SMD 1206, hand soldering")
    (tags "resistor 1206")
    (path /56291C8D)
    (attr smd)
    (fp_text reference D21 (at 0 -2.3) (layer F.SilkS)
      (effects (font (size 1 1) (thickness 0.15)))
    )
    (fp_text value LED (at 0 2.3) (layer F.Fab)
      (effects (font (size 1 1) (thickness 0.15)))
    )
    (fp_line (start -3.3 -1.2) (end 3.3 -1.2) (layer F.CrtYd) (width 0.05))
    (fp_line (start -3.3 1.2) (end 3.3 1.2) (layer F.CrtYd) (width 0.05))
    (fp_line (start -3.3 -1.2) (end -3.3 1.2) (layer F.CrtYd) (width 0.05))
    (fp_line (start 3.3 -1.2) (end 3.3 1.2) (layer F.CrtYd) (width 0.05))
    (fp_line (start 1 1.075) (end -1 1.075) (layer F.SilkS) (width 0.15))
    (fp_line (start -1 -1.075) (end 1 -1.075) (layer F.SilkS) (width 0.15))
    (pad 1 smd rect (at -2 0) (size 2 1.7) (layers F.Cu F.Paste F.Mask)
      (net 14 "Net-(D13-Pad2)"))
    (pad 2 smd rect (at 2 0) (size 2 1.7) (layers F.Cu F.Paste F.Mask)
      (net 22 "Net-(D21-Pad2)"))
    (model Resistors_SMD.3dshapes/R_1206_HandSoldering.wrl
      (at (xyz 0 0 0))
      (scale (xyz 1 1 1))
      (rotate (xyz 0 0 0))
    )
  )

  (module Resistors_SMD:R_1206_HandSoldering (layer F.Cu) (tedit 5418A20D) (tstamp 56290301)
    (at 145.542 88.392)
    (descr "Resistor SMD 1206, hand soldering")
    (tags "resistor 1206")
    (path /56291CAE)
    (attr smd)
    (fp_text reference D22 (at 0 -2.3) (layer F.SilkS)
      (effects (font (size 1 1) (thickness 0.15)))
    )
    (fp_text value LED (at 0 2.3) (layer F.Fab)
      (effects (font (size 1 1) (thickness 0.15)))
    )
    (fp_line (start -3.3 -1.2) (end 3.3 -1.2) (layer F.CrtYd) (width 0.05))
    (fp_line (start -3.3 1.2) (end 3.3 1.2) (layer F.CrtYd) (width 0.05))
    (fp_line (start -3.3 -1.2) (end -3.3 1.2) (layer F.CrtYd) (width 0.05))
    (fp_line (start 3.3 -1.2) (end 3.3 1.2) (layer F.CrtYd) (width 0.05))
    (fp_line (start 1 1.075) (end -1 1.075) (layer F.SilkS) (width 0.15))
    (fp_line (start -1 -1.075) (end 1 -1.075) (layer F.SilkS) (width 0.15))
    (pad 1 smd rect (at -2 0) (size 2 1.7) (layers F.Cu F.Paste F.Mask)
      (net 15 "Net-(D14-Pad2)"))
    (pad 2 smd rect (at 2 0) (size 2 1.7) (layers F.Cu F.Paste F.Mask)
      (net 23 "Net-(D22-Pad2)"))
    (model Resistors_SMD.3dshapes/R_1206_HandSoldering.wrl
      (at (xyz 0 0 0))
      (scale (xyz 1 1 1))
      (rotate (xyz 0 0 0))
    )
  )

  (module Resistors_SMD:R_1206_HandSoldering (layer F.Cu) (tedit 5418A20D) (tstamp 56290307)
    (at 191.262 88.392)
    (descr "Resistor SMD 1206, hand soldering")
    (tags "resistor 1206")
    (path /56291CC3)
    (attr smd)
    (fp_text reference D23 (at 0 -2.3) (layer F.SilkS)
      (effects (font (size 1 1) (thickness 0.15)))
    )
    (fp_text value LED (at 0 2.3) (layer F.Fab)
      (effects (font (size 1 1) (thickness 0.15)))
    )
    (fp_line (start -3.3 -1.2) (end 3.3 -1.2) (layer F.CrtYd) (width 0.05))
    (fp_line (start -3.3 1.2) (end 3.3 1.2) (layer F.CrtYd) (width 0.05))
    (fp_line (start -3.3 -1.2) (end -3.3 1.2) (layer F.CrtYd) (width 0.05))
    (fp_line (start 3.3 -1.2) (end 3.3 1.2) (layer F.CrtYd) (width 0.05))
    (fp_line (start 1 1.075) (end -1 1.075) (layer F.SilkS) (width 0.15))
    (fp_line (start -1 -1.075) (end 1 -1.075) (layer F.SilkS) (width 0.15))
    (pad 1 smd rect (at -2 0) (size 2 1.7) (layers F.Cu F.Paste F.Mask)
      (net 16 "Net-(D15-Pad2)"))
    (pad 2 smd rect (at 2 0) (size 2 1.7) (layers F.Cu F.Paste F.Mask)
      (net 24 "Net-(D23-Pad2)"))
    (model Resistors_SMD.3dshapes/R_1206_HandSoldering.wrl
      (at (xyz 0 0 0))
      (scale (xyz 1 1 1))
      (rotate (xyz 0 0 0))
    )
  )

  (module Resistors_SMD:R_1206_HandSoldering (layer F.Cu) (tedit 5418A20D) (tstamp 5629030D)
    (at 236.982 88.392)
    (descr "Resistor SMD 1206, hand soldering")
    (tags "resistor 1206")
    (path /56291CD8)
    (attr smd)
    (fp_text reference D24 (at 0 -2.3) (layer F.SilkS)
      (effects (font (size 1 1) (thickness 0.15)))
    )
    (fp_text value LED (at 0 2.3) (layer F.Fab)
      (effects (font (size 1 1) (thickness 0.15)))
    )
    (fp_line (start -3.3 -1.2) (end 3.3 -1.2) (layer F.CrtYd) (width 0.05))
    (fp_line (start -3.3 1.2) (end 3.3 1.2) (layer F.CrtYd) (width 0.05))
    (fp_line (start -3.3 -1.2) (end -3.3 1.2) (layer F.CrtYd) (width 0.05))
    (fp_line (start 3.3 -1.2) (end 3.3 1.2) (layer F.CrtYd) (width 0.05))
    (fp_line (start 1 1.075) (end -1 1.075) (layer F.SilkS) (width 0.15))
    (fp_line (start -1 -1.075) (end 1 -1.075) (layer F.SilkS) (width 0.15))
    (pad 1 smd rect (at -2 0) (size 2 1.7) (layers F.Cu F.Paste F.Mask)
      (net 17 "Net-(D16-Pad2)"))
    (pad 2 smd rect (at 2 0) (size 2 1.7) (layers F.Cu F.Paste F.Mask)
      (net 25 "Net-(D24-Pad2)"))
    (model Resistors_SMD.3dshapes/R_1206_HandSoldering.wrl
      (at (xyz 0 0 0))
      (scale (xyz 1 1 1))
      (rotate (xyz 0 0 0))
    )
  )

  (module Pin_Headers:Pin_Header_Angled_1x02 (layer F.Cu) (tedit 0) (tstamp 56290313)
    (at 60.452 93.472 180)
    (descr "Through hole pin header")
    (tags "pin header")
    (path /5628FEED)
    (fp_text reference P1 (at 0 -5.1 180) (layer F.SilkS)
      (effects (font (size 1 1) (thickness 0.15)))
    )
    (fp_text value CONN_01X02 (at 0 -3.1 180) (layer F.Fab)
      (effects (font (size 1 1) (thickness 0.15)))
    )
    (fp_line (start -1.5 -1.75) (end -1.5 4.3) (layer F.CrtYd) (width 0.05))
    (fp_line (start 10.65 -1.75) (end 10.65 4.3) (layer F.CrtYd) (width 0.05))
    (fp_line (start -1.5 -1.75) (end 10.65 -1.75) (layer F.CrtYd) (width 0.05))
    (fp_line (start -1.5 4.3) (end 10.65 4.3) (layer F.CrtYd) (width 0.05))
    (fp_line (start -1.3 -1.55) (end -1.3 0) (layer F.SilkS) (width 0.15))
    (fp_line (start 0 -1.55) (end -1.3 -1.55) (layer F.SilkS) (width 0.15))
    (fp_line (start 4.191 -0.127) (end 10.033 -0.127) (layer F.SilkS) (width 0.15))
    (fp_line (start 10.033 -0.127) (end 10.033 0.127) (layer F.SilkS) (width 0.15))
    (fp_line (start 10.033 0.127) (end 4.191 0.127) (layer F.SilkS) (width 0.15))
    (fp_line (start 4.191 0.127) (end 4.191 0) (layer F.SilkS) (width 0.15))
    (fp_line (start 4.191 0) (end 10.033 0) (layer F.SilkS) (width 0.15))
    (fp_line (start 1.524 -0.254) (end 1.143 -0.254) (layer F.SilkS) (width 0.15))
    (fp_line (start 1.524 0.254) (end 1.143 0.254) (layer F.SilkS) (width 0.15))
    (fp_line (start 1.524 2.286) (end 1.143 2.286) (layer F.SilkS) (width 0.15))
    (fp_line (start 1.524 2.794) (end 1.143 2.794) (layer F.SilkS) (width 0.15))
    (fp_line (start 1.524 -1.27) (end 4.064 -1.27) (layer F.SilkS) (width 0.15))
    (fp_line (start 1.524 1.27) (end 4.064 1.27) (layer F.SilkS) (width 0.15))
    (fp_line (start 1.524 1.27) (end 1.524 3.81) (layer F.SilkS) (width 0.15))
    (fp_line (start 1.524 3.81) (end 4.064 3.81) (layer F.SilkS) (width 0.15))
    (fp_line (start 4.064 2.286) (end 10.16 2.286) (layer F.SilkS) (width 0.15))
    (fp_line (start 10.16 2.286) (end 10.16 2.794) (layer F.SilkS) (width 0.15))
    (fp_line (start 10.16 2.794) (end 4.064 2.794) (layer F.SilkS) (width 0.15))
    (fp_line (start 4.064 3.81) (end 4.064 1.27) (layer F.SilkS) (width 0.15))
    (fp_line (start 4.064 1.27) (end 4.064 -1.27) (layer F.SilkS) (width 0.15))
    (fp_line (start 10.16 0.254) (end 4.064 0.254) (layer F.SilkS) (width 0.15))
    (fp_line (start 10.16 -0.254) (end 10.16 0.254) (layer F.SilkS) (width 0.15))
    (fp_line (start 4.064 -0.254) (end 10.16 -0.254) (layer F.SilkS) (width 0.15))
    (fp_line (start 1.524 1.27) (end 4.064 1.27) (layer F.SilkS) (width 0.15))
    (fp_line (start 1.524 -1.27) (end 1.524 1.27) (layer F.SilkS) (width 0.15))
    (pad 1 thru_hole rect (at 0 0 180) (size 2.032 2.032) (drill 1.016) (layers *.Cu *.Mask F.SilkS)
      (net 1 "Net-(D1-Pad1)"))
    (pad 2 thru_hole oval (at 0 2.54 180) (size 2.032 2.032) (drill 1.016) (layers *.Cu *.Mask F.SilkS)
      (net 26 "Net-(P1-Pad2)"))
    (model Pin_Headers.3dshapes/Pin_Header_Angled_1x02.wrl
      (at (xyz 0 -0.05 0))
      (scale (xyz 1 1 1))
      (rotate (xyz 0 0 90))
    )
  )

  (module Resistors_SMD:R_0603_HandSoldering (layer F.Cu) (tedit 5418A00F) (tstamp 56290319)
    (at 107.442 94.742 270)
    (descr "Resistor SMD 0603, hand soldering")
    (tags "resistor 0603")
    (path /5628FEB2)
    (attr smd)
    (fp_text reference R1 (at 0 -1.9 270) (layer F.SilkS)
      (effects (font (size 1 1) (thickness 0.15)))
    )
    (fp_text value 100 (at 0 1.9 270) (layer F.Fab)
      (effects (font (size 1 1) (thickness 0.15)))
    )
    (fp_line (start -2 -0.8) (end 2 -0.8) (layer F.CrtYd) (width 0.05))
    (fp_line (start -2 0.8) (end 2 0.8) (layer F.CrtYd) (width 0.05))
    (fp_line (start -2 -0.8) (end -2 0.8) (layer F.CrtYd) (width 0.05))
    (fp_line (start 2 -0.8) (end 2 0.8) (layer F.CrtYd) (width 0.05))
    (fp_line (start 0.5 0.675) (end -0.5 0.675) (layer F.SilkS) (width 0.15))
    (fp_line (start -0.5 -0.675) (end 0.5 -0.675) (layer F.SilkS) (width 0.15))
    (pad 1 smd rect (at -1.1 0 270) (size 1.2 0.9) (layers F.Cu F.Paste F.Mask)
      (net 26 "Net-(P1-Pad2)"))
    (pad 2 smd rect (at 1.1 0 270) (size 1.2 0.9) (layers F.Cu F.Paste F.Mask)
      (net 18 "Net-(D17-Pad2)"))
    (model Resistors_SMD.3dshapes/R_0603_HandSoldering.wrl
      (at (xyz 0 0 0))
      (scale (xyz 1 1 1))
      (rotate (xyz 0 0 0))
    )
  )

  (module Resistors_SMD:R_0603_HandSoldering (layer F.Cu) (tedit 5418A00F) (tstamp 5629031F)
    (at 153.162 94.742 270)
    (descr "Resistor SMD 0603, hand soldering")
    (tags "resistor 0603")
    (path /562902BB)
    (attr smd)
    (fp_text reference R2 (at 0 -1.9 270) (layer F.SilkS)
      (effects (font (size 1 1) (thickness 0.15)))
    )
    (fp_text value 100 (at 0 1.9 270) (layer F.Fab)
      (effects (font (size 1 1) (thickness 0.15)))
    )
    (fp_line (start -2 -0.8) (end 2 -0.8) (layer F.CrtYd) (width 0.05))
    (fp_line (start -2 0.8) (end 2 0.8) (layer F.CrtYd) (width 0.05))
    (fp_line (start -2 -0.8) (end -2 0.8) (layer F.CrtYd) (width 0.05))
    (fp_line (start 2 -0.8) (end 2 0.8) (layer F.CrtYd) (width 0.05))
    (fp_line (start 0.5 0.675) (end -0.5 0.675) (layer F.SilkS) (width 0.15))
    (fp_line (start -0.5 -0.675) (end 0.5 -0.675) (layer F.SilkS) (width 0.15))
    (pad 1 smd rect (at -1.1 0 270) (size 1.2 0.9) (layers F.Cu F.Paste F.Mask)
      (net 26 "Net-(P1-Pad2)"))
    (pad 2 smd rect (at 1.1 0 270) (size 1.2 0.9) (layers F.Cu F.Paste F.Mask)
      (net 19 "Net-(D18-Pad2)"))
    (model Resistors_SMD.3dshapes/R_0603_HandSoldering.wrl
      (at (xyz 0 0 0))
      (scale (xyz 1 1 1))
      (rotate (xyz 0 0 0))
    )
  )

  (module Resistors_SMD:R_0603_HandSoldering (layer F.Cu) (tedit 5418A00F) (tstamp 56290325)
    (at 197.612 94.742 270)
    (descr "Resistor SMD 0603, hand soldering")
    (tags "resistor 0603")
    (path /56290379)
    (attr smd)
    (fp_text reference R3 (at 0 -1.9 270) (layer F.SilkS)
      (effects (font (size 1 1) (thickness 0.15)))
    )
    (fp_text value 100 (at 0 1.9 270) (layer F.Fab)
      (effects (font (size 1 1) (thickness 0.15)))
    )
    (fp_line (start -2 -0.8) (end 2 -0.8) (layer F.CrtYd) (width 0.05))
    (fp_line (start -2 0.8) (end 2 0.8) (layer F.CrtYd) (width 0.05))
    (fp_line (start -2 -0.8) (end -2 0.8) (layer F.CrtYd) (width 0.05))
    (fp_line (start 2 -0.8) (end 2 0.8) (layer F.CrtYd) (width 0.05))
    (fp_line (start 0.5 0.675) (end -0.5 0.675) (layer F.SilkS) (width 0.15))
    (fp_line (start -0.5 -0.675) (end 0.5 -0.675) (layer F.SilkS) (width 0.15))
    (pad 1 smd rect (at -1.1 0 270) (size 1.2 0.9) (layers F.Cu F.Paste F.Mask)
      (net 26 "Net-(P1-Pad2)"))
    (pad 2 smd rect (at 1.1 0 270) (size 1.2 0.9) (layers F.Cu F.Paste F.Mask)
      (net 20 "Net-(D19-Pad2)"))
    (model Resistors_SMD.3dshapes/R_0603_HandSoldering.wrl
      (at (xyz 0 0 0))
      (scale (xyz 1 1 1))
      (rotate (xyz 0 0 0))
    )
  )

  (module Resistors_SMD:R_0603_HandSoldering (layer F.Cu) (tedit 5418A00F) (tstamp 5629032B)
    (at 244.602 94.742 270)
    (descr "Resistor SMD 0603, hand soldering")
    (tags "resistor 0603")
    (path /5629037F)
    (attr smd)
    (fp_text reference R4 (at 0 -1.9 270) (layer F.SilkS)
      (effects (font (size 1 1) (thickness 0.15)))
    )
    (fp_text value 100 (at 0 1.9 270) (layer F.Fab)
      (effects (font (size 1 1) (thickness 0.15)))
    )
    (fp_line (start -2 -0.8) (end 2 -0.8) (layer F.CrtYd) (width 0.05))
    (fp_line (start -2 0.8) (end 2 0.8) (layer F.CrtYd) (width 0.05))
    (fp_line (start -2 -0.8) (end -2 0.8) (layer F.CrtYd) (width 0.05))
    (fp_line (start 2 -0.8) (end 2 0.8) (layer F.CrtYd) (width 0.05))
    (fp_line (start 0.5 0.675) (end -0.5 0.675) (layer F.SilkS) (width 0.15))
    (fp_line (start -0.5 -0.675) (end 0.5 -0.675) (layer F.SilkS) (width 0.15))
    (pad 1 smd rect (at -1.1 0 270) (size 1.2 0.9) (layers F.Cu F.Paste F.Mask)
      (net 26 "Net-(P1-Pad2)"))
    (pad 2 smd rect (at 1.1 0 270) (size 1.2 0.9) (layers F.Cu F.Paste F.Mask)
      (net 21 "Net-(D20-Pad2)"))
    (model Resistors_SMD.3dshapes/R_0603_HandSoldering.wrl
      (at (xyz 0 0 0))
      (scale (xyz 1 1 1))
      (rotate (xyz 0 0 0))
    )
  )

  (module Resistors_SMD:R_0603_HandSoldering (layer F.Cu) (tedit 5418A00F) (tstamp 56290331)
    (at 107.442 89.662 90)
    (descr "Resistor SMD 0603, hand soldering")
    (tags "resistor 0603")
    (path /56291C95)
    (attr smd)
    (fp_text reference R5 (at 0 -1.9 90) (layer F.SilkS)
      (effects (font (size 1 1) (thickness 0.15)))
    )
    (fp_text value 100 (at 0 1.9 90) (layer F.Fab)
      (effects (font (size 1 1) (thickness 0.15)))
    )
    (fp_line (start -2 -0.8) (end 2 -0.8) (layer F.CrtYd) (width 0.05))
    (fp_line (start -2 0.8) (end 2 0.8) (layer F.CrtYd) (width 0.05))
    (fp_line (start -2 -0.8) (end -2 0.8) (layer F.CrtYd) (width 0.05))
    (fp_line (start 2 -0.8) (end 2 0.8) (layer F.CrtYd) (width 0.05))
    (fp_line (start 0.5 0.675) (end -0.5 0.675) (layer F.SilkS) (width 0.15))
    (fp_line (start -0.5 -0.675) (end 0.5 -0.675) (layer F.SilkS) (width 0.15))
    (pad 1 smd rect (at -1.1 0 90) (size 1.2 0.9) (layers F.Cu F.Paste F.Mask)
      (net 26 "Net-(P1-Pad2)"))
    (pad 2 smd rect (at 1.1 0 90) (size 1.2 0.9) (layers F.Cu F.Paste F.Mask)
      (net 22 "Net-(D21-Pad2)"))
    (model Resistors_SMD.3dshapes/R_0603_HandSoldering.wrl
      (at (xyz 0 0 0))
      (scale (xyz 1 1 1))
      (rotate (xyz 0 0 0))
    )
  )

  (module Resistors_SMD:R_0603_HandSoldering (layer F.Cu) (tedit 5418A00F) (tstamp 56290337)
    (at 153.162 89.662 90)
    (descr "Resistor SMD 0603, hand soldering")
    (tags "resistor 0603")
    (path /56291CE1)
    (attr smd)
    (fp_text reference R6 (at 0 -1.9 90) (layer F.SilkS)
      (effects (font (size 1 1) (thickness 0.15)))
    )
    (fp_text value 100 (at 0 1.9 90) (layer F.Fab)
      (effects (font (size 1 1) (thickness 0.15)))
    )
    (fp_line (start -2 -0.8) (end 2 -0.8) (layer F.CrtYd) (width 0.05))
    (fp_line (start -2 0.8) (end 2 0.8) (layer F.CrtYd) (width 0.05))
    (fp_line (start -2 -0.8) (end -2 0.8) (layer F.CrtYd) (width 0.05))
    (fp_line (start 2 -0.8) (end 2 0.8) (layer F.CrtYd) (width 0.05))
    (fp_line (start 0.5 0.675) (end -0.5 0.675) (layer F.SilkS) (width 0.15))
    (fp_line (start -0.5 -0.675) (end 0.5 -0.675) (layer F.SilkS) (width 0.15))
    (pad 1 smd rect (at -1.1 0 90) (size 1.2 0.9) (layers F.Cu F.Paste F.Mask)
      (net 26 "Net-(P1-Pad2)"))
    (pad 2 smd rect (at 1.1 0 90) (size 1.2 0.9) (layers F.Cu F.Paste F.Mask)
      (net 23 "Net-(D22-Pad2)"))
    (model Resistors_SMD.3dshapes/R_0603_HandSoldering.wrl
      (at (xyz 0 0 0))
      (scale (xyz 1 1 1))
      (rotate (xyz 0 0 0))
    )
  )

  (module Resistors_SMD:R_0603_HandSoldering (layer F.Cu) (tedit 5418A00F) (tstamp 5629033D)
    (at 197.612 89.662 90)
    (descr "Resistor SMD 0603, hand soldering")
    (tags "resistor 0603")
    (path /56291CE7)
    (attr smd)
    (fp_text reference R7 (at 0 -1.9 90) (layer F.SilkS)
      (effects (font (size 1 1) (thickness 0.15)))
    )
    (fp_text value 100 (at 0 1.9 90) (layer F.Fab)
      (effects (font (size 1 1) (thickness 0.15)))
    )
    (fp_line (start -2 -0.8) (end 2 -0.8) (layer F.CrtYd) (width 0.05))
    (fp_line (start -2 0.8) (end 2 0.8) (layer F.CrtYd) (width 0.05))
    (fp_line (start -2 -0.8) (end -2 0.8) (layer F.CrtYd) (width 0.05))
    (fp_line (start 2 -0.8) (end 2 0.8) (layer F.CrtYd) (width 0.05))
    (fp_line (start 0.5 0.675) (end -0.5 0.675) (layer F.SilkS) (width 0.15))
    (fp_line (start -0.5 -0.675) (end 0.5 -0.675) (layer F.SilkS) (width 0.15))
    (pad 1 smd rect (at -1.1 0 90) (size 1.2 0.9) (layers F.Cu F.Paste F.Mask)
      (net 26 "Net-(P1-Pad2)"))
    (pad 2 smd rect (at 1.1 0 90) (size 1.2 0.9) (layers F.Cu F.Paste F.Mask)
      (net 24 "Net-(D23-Pad2)"))
    (model Resistors_SMD.3dshapes/R_0603_HandSoldering.wrl
      (at (xyz 0 0 0))
      (scale (xyz 1 1 1))
      (rotate (xyz 0 0 0))
    )
  )

  (module Resistors_SMD:R_0603_HandSoldering (layer F.Cu) (tedit 56290845) (tstamp 56290343)
    (at 244.602 89.662 90)
    (descr "Resistor SMD 0603, hand soldering")
    (tags "resistor 0603")
    (path /56291CED)
    (attr smd)
    (fp_text reference R8 (at 0 -1.9 90) (layer F.SilkS)
      (effects (font (size 1 1) (thickness 0.15)))
    )
    (fp_text value 100 (at 0 1.9 180) (layer F.Fab)
      (effects (font (size 1 1) (thickness 0.15)))
    )
    (fp_line (start -2 -0.8) (end 2 -0.8) (layer F.CrtYd) (width 0.05))
    (fp_line (start -2 0.8) (end 2 0.8) (layer F.CrtYd) (width 0.05))
    (fp_line (start -2 -0.8) (end -2 0.8) (layer F.CrtYd) (width 0.05))
    (fp_line (start 2 -0.8) (end 2 0.8) (layer F.CrtYd) (width 0.05))
    (fp_line (start 0.5 0.675) (end -0.5 0.675) (layer F.SilkS) (width 0.15))
    (fp_line (start -0.5 -0.675) (end 0.5 -0.675) (layer F.SilkS) (width 0.15))
    (pad 1 smd rect (at -1.1 0 90) (size 1.2 0.9) (layers F.Cu F.Paste F.Mask)
      (net 26 "Net-(P1-Pad2)"))
    (pad 2 smd rect (at 1.1 0 90) (size 1.2 0.9) (layers F.Cu F.Paste F.Mask)
      (net 25 "Net-(D24-Pad2)"))
    (model Resistors_SMD.3dshapes/R_0603_HandSoldering.wrl
      (at (xyz 0 0 0))
      (scale (xyz 1 1 1))
      (rotate (xyz 0 0 0))
    )
  )

  (module Pin_Headers:Pin_Header_Angled_1x02 (layer F.Cu) (tedit 0) (tstamp 5629078D)
    (at 248.412 90.932)
    (descr "Through hole pin header")
    (tags "pin header")
    (path /56292A82)
    (fp_text reference P2 (at 0 -5.1) (layer F.SilkS)
      (effects (font (size 1 1) (thickness 0.15)))
    )
    (fp_text value CONN_01X02 (at 0 -3.1) (layer F.Fab)
      (effects (font (size 1 1) (thickness 0.15)))
    )
    (fp_line (start -1.5 -1.75) (end -1.5 4.3) (layer F.CrtYd) (width 0.05))
    (fp_line (start 10.65 -1.75) (end 10.65 4.3) (layer F.CrtYd) (width 0.05))
    (fp_line (start -1.5 -1.75) (end 10.65 -1.75) (layer F.CrtYd) (width 0.05))
    (fp_line (start -1.5 4.3) (end 10.65 4.3) (layer F.CrtYd) (width 0.05))
    (fp_line (start -1.3 -1.55) (end -1.3 0) (layer F.SilkS) (width 0.15))
    (fp_line (start 0 -1.55) (end -1.3 -1.55) (layer F.SilkS) (width 0.15))
    (fp_line (start 4.191 -0.127) (end 10.033 -0.127) (layer F.SilkS) (width 0.15))
    (fp_line (start 10.033 -0.127) (end 10.033 0.127) (layer F.SilkS) (width 0.15))
    (fp_line (start 10.033 0.127) (end 4.191 0.127) (layer F.SilkS) (width 0.15))
    (fp_line (start 4.191 0.127) (end 4.191 0) (layer F.SilkS) (width 0.15))
    (fp_line (start 4.191 0) (end 10.033 0) (layer F.SilkS) (width 0.15))
    (fp_line (start 1.524 -0.254) (end 1.143 -0.254) (layer F.SilkS) (width 0.15))
    (fp_line (start 1.524 0.254) (end 1.143 0.254) (layer F.SilkS) (width 0.15))
    (fp_line (start 1.524 2.286) (end 1.143 2.286) (layer F.SilkS) (width 0.15))
    (fp_line (start 1.524 2.794) (end 1.143 2.794) (layer F.SilkS) (width 0.15))
    (fp_line (start 1.524 -1.27) (end 4.064 -1.27) (layer F.SilkS) (width 0.15))
    (fp_line (start 1.524 1.27) (end 4.064 1.27) (layer F.SilkS) (width 0.15))
    (fp_line (start 1.524 1.27) (end 1.524 3.81) (layer F.SilkS) (width 0.15))
    (fp_line (start 1.524 3.81) (end 4.064 3.81) (layer F.SilkS) (width 0.15))
    (fp_line (start 4.064 2.286) (end 10.16 2.286) (layer F.SilkS) (width 0.15))
    (fp_line (start 10.16 2.286) (end 10.16 2.794) (layer F.SilkS) (width 0.15))
    (fp_line (start 10.16 2.794) (end 4.064 2.794) (layer F.SilkS) (width 0.15))
    (fp_line (start 4.064 3.81) (end 4.064 1.27) (layer F.SilkS) (width 0.15))
    (fp_line (start 4.064 1.27) (end 4.064 -1.27) (layer F.SilkS) (width 0.15))
    (fp_line (start 10.16 0.254) (end 4.064 0.254) (layer F.SilkS) (width 0.15))
    (fp_line (start 10.16 -0.254) (end 10.16 0.254) (layer F.SilkS) (width 0.15))
    (fp_line (start 4.064 -0.254) (end 10.16 -0.254) (layer F.SilkS) (width 0.15))
    (fp_line (start 1.524 1.27) (end 4.064 1.27) (layer F.SilkS) (width 0.15))
    (fp_line (start 1.524 -1.27) (end 1.524 1.27) (layer F.SilkS) (width 0.15))
    (pad 1 thru_hole rect (at 0 0) (size 2.032 2.032) (drill 1.016) (layers *.Cu *.Mask F.SilkS)
      (net 26 "Net-(P1-Pad2)"))
    (pad 2 thru_hole oval (at 0 2.54) (size 2.032 2.032) (drill 1.016) (layers *.Cu *.Mask F.SilkS)
      (net 1 "Net-(D1-Pad1)"))
    (model Pin_Headers.3dshapes/Pin_Header_Angled_1x02.wrl
      (at (xyz 0 -0.05 0))
      (scale (xyz 1 1 1))
      (rotate (xyz 0 0 90))
    )
  )

  (gr_line (start 254.254 82.042) (end 54.102 82.042) (angle 90) (layer Edge.Cuts) (width 0.15))
  (gr_line (start 254.254 101.092) (end 254.254 82.042) (angle 90) (layer Edge.Cuts) (width 0.15))
  (gr_line (start 54.102 101.092) (end 254.254 101.092) (angle 90) (layer Edge.Cuts) (width 0.15))
  (gr_line (start 54.102 82.042) (end 54.102 101.092) (angle 90) (layer Edge.Cuts) (width 0.15))
  (dimension 200.152 (width 0.3) (layer Eco2.User)
    (gr_text "200,152 mm" (at 154.178 107.268) (layer Eco2.User)
      (effects (font (size 1.5 1.5) (thickness 0.3)))
    )
    (feature1 (pts (xy 254.254 101.092) (xy 254.254 108.618)))
    (feature2 (pts (xy 54.102 101.092) (xy 54.102 108.618)))
    (crossbar (pts (xy 54.102 105.918) (xy 254.254 105.918)))
    (arrow1a (pts (xy 254.254 105.918) (xy 253.127496 106.504421)))
    (arrow1b (pts (xy 254.254 105.918) (xy 253.127496 105.331579)))
    (arrow2a (pts (xy 54.102 105.918) (xy 55.228504 106.504421)))
    (arrow2b (pts (xy 54.102 105.918) (xy 55.228504 105.331579)))
  )
  (dimension 19.05 (width 0.3) (layer Eco2.User)
    (gr_text "19,050 mm" (at 50.212 91.567 90) (layer Eco2.User)
      (effects (font (size 1.5 1.5) (thickness 0.3)))
    )
    (feature1 (pts (xy 54.102 82.042) (xy 48.862 82.042)))
    (feature2 (pts (xy 54.102 101.092) (xy 48.862 101.092)))
    (crossbar (pts (xy 51.562 101.092) (xy 51.562 82.042)))
    (arrow1a (pts (xy 51.562 82.042) (xy 52.148421 83.168504)))
    (arrow1b (pts (xy 51.562 82.042) (xy 50.975579 83.168504)))
    (arrow2a (pts (xy 51.562 101.092) (xy 52.148421 99.965496)))
    (arrow2b (pts (xy 51.562 101.092) (xy 50.975579 99.965496)))
  )

  (segment (start 56.642 88.392) (end 56.642 96.012) (width 1) (layer F.Cu) (net 1))
  (segment (start 56.642 96.012) (end 57.912 96.012) (width 1) (layer F.Cu) (net 1) (tstamp 562909BC))
  (segment (start 60.452 93.472) (end 60.452 96.012) (width 1) (layer F.Cu) (net 1))
  (segment (start 202.692 99.822) (end 247.142 99.822) (width 1) (layer F.Cu) (net 1))
  (segment (start 248.412 98.552) (end 248.412 93.472) (width 1) (layer F.Cu) (net 1) (tstamp 56290946))
  (segment (start 247.142 99.822) (end 248.412 98.552) (width 1) (layer F.Cu) (net 1) (tstamp 56290945))
  (segment (start 67.342 88.392) (end 56.642 88.392) (width 1) (layer F.Cu) (net 1))
  (segment (start 57.912 96.012) (end 60.452 96.012) (width 1) (layer F.Cu) (net 1) (tstamp 56290918))
  (segment (start 60.452 96.012) (end 67.342 96.012) (width 1) (layer F.Cu) (net 1) (tstamp 562909B4))
  (segment (start 113.062 96.012) (end 113.062 99.822) (width 1) (layer F.Cu) (net 1))
  (segment (start 113.062 99.822) (end 112.522 99.822) (width 1) (layer F.Cu) (net 1) (tstamp 56290726))
  (segment (start 158.782 96.012) (end 158.782 99.822) (width 1) (layer F.Cu) (net 1))
  (segment (start 158.782 99.822) (end 158.242 99.822) (width 1) (layer F.Cu) (net 1) (tstamp 56290720))
  (segment (start 67.342 96.012) (end 67.342 97.822) (width 1) (layer F.Cu) (net 1))
  (segment (start 69.342 99.822) (end 112.522 99.822) (width 1) (layer F.Cu) (net 1) (tstamp 5629070A))
  (segment (start 67.342 97.822) (end 69.342 99.822) (width 1) (layer F.Cu) (net 1) (tstamp 56290709))
  (segment (start 204.502 98.012) (end 204.502 96.012) (width 1) (layer F.Cu) (net 1) (tstamp 56290719))
  (segment (start 202.692 99.822) (end 204.502 98.012) (width 1) (layer F.Cu) (net 1) (tstamp 56290711))
  (segment (start 112.522 99.822) (end 158.242 99.822) (width 1) (layer F.Cu) (net 1) (tstamp 56290729))
  (segment (start 158.242 99.822) (end 202.692 99.822) (width 1) (layer F.Cu) (net 1) (tstamp 56290724))
  (segment (start 113.062 88.392) (end 113.062 84.582) (width 1) (layer F.Cu) (net 1))
  (segment (start 113.062 84.582) (end 112.522 84.582) (width 1) (layer F.Cu) (net 1) (tstamp 562906C5))
  (segment (start 158.782 88.392) (end 158.782 84.582) (width 1) (layer F.Cu) (net 1))
  (segment (start 158.782 84.582) (end 158.242 84.582) (width 1) (layer F.Cu) (net 1) (tstamp 562906B5))
  (segment (start 67.342 88.392) (end 67.342 85.312) (width 1) (layer F.Cu) (net 1))
  (segment (start 204.502 86.392) (end 204.502 88.392) (width 1) (layer F.Cu) (net 1) (tstamp 562906B1))
  (segment (start 202.692 84.582) (end 204.502 86.392) (width 1) (layer F.Cu) (net 1) (tstamp 562906AA))
  (segment (start 68.072 84.582) (end 112.522 84.582) (width 1) (layer F.Cu) (net 1) (tstamp 562906A8))
  (segment (start 112.522 84.582) (end 158.242 84.582) (width 1) (layer F.Cu) (net 1) (tstamp 562906CA))
  (segment (start 158.242 84.582) (end 202.692 84.582) (width 1) (layer F.Cu) (net 1) (tstamp 562906BB))
  (segment (start 67.342 85.312) (end 68.072 84.582) (width 1) (layer F.Cu) (net 1) (tstamp 562906A5))
  (segment (start 71.342 96.012) (end 82.582 96.012) (width 1) (layer F.Cu) (net 2))
  (segment (start 117.062 96.012) (end 128.302 96.012) (width 1) (layer F.Cu) (net 3))
  (segment (start 162.782 96.012) (end 174.022 96.012) (width 1) (layer F.Cu) (net 4))
  (segment (start 208.502 96.012) (end 219.742 96.012) (width 1) (layer F.Cu) (net 5))
  (segment (start 71.342 88.392) (end 82.582 88.392) (width 1) (layer F.Cu) (net 6))
  (segment (start 117.062 88.392) (end 128.302 88.392) (width 1) (layer F.Cu) (net 7))
  (segment (start 162.782 88.392) (end 174.022 88.392) (width 1) (layer F.Cu) (net 8))
  (segment (start 208.502 88.392) (end 219.742 88.392) (width 1) (layer F.Cu) (net 9))
  (segment (start 86.582 96.012) (end 97.822 96.012) (width 1) (layer F.Cu) (net 10))
  (segment (start 132.302 96.012) (end 143.542 96.012) (width 1) (layer F.Cu) (net 11))
  (segment (start 178.022 96.012) (end 188.722 96.012) (width 1) (layer F.Cu) (net 12))
  (segment (start 188.722 96.012) (end 189.262 96.012) (width 1) (layer F.Cu) (net 12) (tstamp 562905AE))
  (segment (start 223.742 96.012) (end 234.982 96.012) (width 1) (layer F.Cu) (net 13))
  (segment (start 86.582 88.392) (end 97.822 88.392) (width 1) (layer F.Cu) (net 14))
  (segment (start 132.302 88.392) (end 143.542 88.392) (width 1) (layer F.Cu) (net 15))
  (segment (start 178.022 88.392) (end 189.262 88.392) (width 1) (layer F.Cu) (net 16))
  (segment (start 223.742 88.392) (end 234.982 88.392) (width 1) (layer F.Cu) (net 17))
  (segment (start 101.822 96.012) (end 107.272 96.012) (width 1) (layer F.Cu) (net 18))
  (segment (start 107.272 96.012) (end 107.442 95.842) (width 1) (layer F.Cu) (net 18) (tstamp 562906FD))
  (segment (start 147.542 96.012) (end 152.992 96.012) (width 1) (layer F.Cu) (net 19))
  (segment (start 152.992 96.012) (end 153.162 95.842) (width 1) (layer F.Cu) (net 19) (tstamp 562906EE))
  (segment (start 193.262 96.012) (end 197.442 96.012) (width 1) (layer F.Cu) (net 20))
  (segment (start 197.442 96.012) (end 197.612 95.842) (width 1) (layer F.Cu) (net 20) (tstamp 562906EB))
  (segment (start 238.982 96.012) (end 244.432 96.012) (width 1) (layer F.Cu) (net 21))
  (segment (start 244.432 96.012) (end 244.602 95.842) (width 1) (layer F.Cu) (net 21) (tstamp 562906D4))
  (segment (start 101.822 88.392) (end 107.272 88.392) (width 1) (layer F.Cu) (net 22))
  (segment (start 107.272 88.392) (end 107.442 88.562) (width 1) (layer F.Cu) (net 22) (tstamp 562906FA))
  (segment (start 147.542 88.392) (end 152.992 88.392) (width 1) (layer F.Cu) (net 23))
  (segment (start 152.992 88.392) (end 153.162 88.562) (width 1) (layer F.Cu) (net 23) (tstamp 562906F1))
  (segment (start 193.262 88.392) (end 197.612 88.392) (width 1) (layer F.Cu) (net 24))
  (segment (start 197.612 88.392) (end 197.612 88.562) (width 1) (layer F.Cu) (net 24) (tstamp 562906EA))
  (segment (start 238.982 88.392) (end 244.432 88.392) (width 1) (layer F.Cu) (net 25))
  (segment (start 244.432 88.392) (end 244.602 88.562) (width 1) (layer F.Cu) (net 25) (tstamp 562906D1))
  (segment (start 62.992 90.932) (end 60.452 90.932) (width 1) (layer F.Cu) (net 26))
  (segment (start 244.602 90.762) (end 248.242 90.762) (width 1) (layer F.Cu) (net 26))
  (segment (start 248.242 90.762) (end 248.412 90.932) (width 1) (layer F.Cu) (net 26) (tstamp 56290942))
  (segment (start 107.442 92.202) (end 64.262 92.202) (width 1) (layer F.Cu) (net 26))
  (segment (start 64.262 92.202) (end 62.992 90.932) (width 1) (layer F.Cu) (net 26) (tstamp 56290904))
  (segment (start 153.162 92.202) (end 107.442 92.202) (width 1) (layer F.Cu) (net 26) (tstamp 56290679))
  (segment (start 197.612 92.202) (end 153.162 92.202) (width 1) (layer F.Cu) (net 26))
  (segment (start 197.612 92.202) (end 244.602 92.202) (width 1) (layer F.Cu) (net 26))
  (segment (start 244.602 92.202) (end 244.602 93.642) (width 1) (layer F.Cu) (net 26))
  (segment (start 244.602 92.202) (end 244.602 90.762) (width 1) (layer F.Cu) (net 26) (tstamp 5629067E))
  (segment (start 153.162 93.642) (end 153.162 92.202) (width 1) (layer F.Cu) (net 26))
  (segment (start 153.162 90.762) (end 153.162 92.202) (width 1) (layer F.Cu) (net 26))
  (segment (start 197.612 93.642) (end 197.612 92.202) (width 1) (layer F.Cu) (net 26))
  (segment (start 197.612 90.762) (end 197.612 92.202) (width 1) (layer F.Cu) (net 26))
  (segment (start 107.442 93.642) (end 107.442 92.202) (width 1) (layer F.Cu) (net 26))
  (segment (start 107.442 92.202) (end 107.442 90.762) (width 1) (layer F.Cu) (net 26) (tstamp 5629065D))

)
