%!PS-Adobe-3.0
%%Creator: PCBNEW
%%CreationDate: Thu Oct 22 18:17:01 2015
%%Title: /home/na/workspace/pcbeatcher/pdf/pcbetchant-F_Cu.ps
%%Pages: 1
%%PageOrder: Ascend
%%BoundingBox: 0 0 596 842
%%DocumentMedia: A4 595 842 0 () ()
%%Orientation: Landscape
%%EndComments
%%BeginProlog
/line { newpath moveto lineto stroke } bind def
/cir0 { newpath 0 360 arc stroke } bind def
/cir1 { newpath 0 360 arc gsave fill grestore stroke } bind def
/cir2 { newpath 0 360 arc gsave fill grestore stroke } bind def
/arc0 { newpath arc stroke } bind def
/arc1 { newpath 4 index 4 index moveto arc closepath gsave fill
    grestore stroke } bind def
/arc2 { newpath 4 index 4 index moveto arc closepath gsave fill
    grestore stroke } bind def
/poly0 { stroke } bind def
/poly1 { closepath gsave fill grestore stroke } bind def
/poly2 { closepath gsave fill grestore stroke } bind def
/rect0 { rectstroke } bind def
/rect1 { rectfill } bind def
/rect2 { rectfill } bind def
/linemode0 { 0 setlinecap 0 setlinejoin 0 setlinewidth } bind def
/linemode1 { 1 setlinecap 1 setlinejoin } bind def
/dashedline { [200] 100 setdash } bind def
/solidline { [] 0 setdash } bind def
/phantomshow { moveto
    /KicadFont findfont 0.000001 scalefont setfont
    show } bind def
/textshow { gsave
    findfont exch scalefont setfont concat 1 scale 0 0 moveto show
    } bind def
/reencodefont {
  findfont dup length dict begin
  { 1 index /FID ne
    { def }
    { pop pop } ifelse
  } forall
  /Encoding ISOLatin1Encoding def
  currentdict
  end } bind def
/KicadFont /Helvetica reencodefont definefont pop
/KicadFont-Bold /Helvetica-Bold reencodefont definefont pop
/KicadFont-Oblique /Helvetica-Oblique reencodefont definefont pop
/KicadFont-BoldOblique /Helvetica-BoldOblique reencodefont definefont pop
%%EndProlog
%%Page: 1 1
%%BeginPageSetup
gsave
0.0072 0.0072 scale
linemode1
82680 0 translate 90 rotate
39.3701 setlinewidth
%%EndPageSetup
0 0 0 setrgbcolor
0 0 0 setrgbcolor
59.0551 setlinewidth
newpath
99130 45880 moveto
99130 38380 lineto
stroke
0 0 0 setrgbcolor
newpath
99130 38380 moveto
20330 38380 lineto
stroke
0 0 0 setrgbcolor
newpath
20330 38380 moveto
20330 45880 lineto
stroke
0 0 0 setrgbcolor
newpath
20330 45880 moveto
99130 45880 lineto
stroke
0 0 0 setrgbcolor
newpath
20330 55380 moveto
99130 55380 lineto
stroke
0 0 0 setrgbcolor
newpath
20330 47880 moveto
20330 55380 lineto
stroke
0 0 0 setrgbcolor
newpath
99130 47880 moveto
20330 47880 lineto
stroke
0 0 0 setrgbcolor
newpath
99130 55380 moveto
99130 47880 lineto
stroke
0 0 0 setrgbcolor
newpath
99130 75380 moveto
99130 67880 lineto
stroke
0 0 0 setrgbcolor
newpath
99130 67880 moveto
20330 67880 lineto
stroke
0 0 0 setrgbcolor
newpath
20330 67880 moveto
20330 75380 lineto
stroke
0 0 0 setrgbcolor
newpath
20330 75380 moveto
99130 75380 lineto
stroke
0 0 0 setrgbcolor
newpath
20330 65880 moveto
99130 65880 lineto
stroke
0 0 0 setrgbcolor
newpath
20330 58380 moveto
20330 65880 lineto
stroke
0 0 0 setrgbcolor
newpath
99130 58380 moveto
20330 58380 lineto
stroke
0 0 0 setrgbcolor
newpath
99130 65880 moveto
99130 58380 lineto
stroke
0 0 0 setrgbcolor
0 setlinewidth
newpath
23030 41980 moveto
23030 42780 lineto
22230 42780 lineto
22230 41980 lineto
23030 41980 lineto
poly1
0 0 0 setrgbcolor
800 setlinewidth
newpath
22630 41380 moveto
22630 41380 lineto
stroke
0 0 0 setrgbcolor
0 setlinewidth
newpath
23952.8 42210.7 moveto
24307.2 42210.7 lineto
24307.2 42683.1 lineto
23952.8 42683.1 lineto
23952.8 42210.7 lineto
poly1
0 0 0 setrgbcolor
newpath
23952.8 43076.9 moveto
24307.2 43076.9 lineto
24307.2 43549.3 lineto
23952.8 43549.3 lineto
23952.8 43076.9 lineto
poly1
0 0 0 setrgbcolor
newpath
42452.8 42210.7 moveto
42807.2 42210.7 lineto
42807.2 42683.1 lineto
42452.8 42683.1 lineto
42452.8 42210.7 lineto
poly1
0 0 0 setrgbcolor
newpath
42452.8 43076.9 moveto
42807.2 43076.9 lineto
42807.2 43549.3 lineto
42452.8 43549.3 lineto
42452.8 43076.9 lineto
poly1
0 0 0 setrgbcolor
newpath
59952.8 42210.7 moveto
60307.2 42210.7 lineto
60307.2 42683.1 lineto
59952.8 42683.1 lineto
59952.8 42210.7 lineto
poly1
0 0 0 setrgbcolor
newpath
59952.8 43076.9 moveto
60307.2 43076.9 lineto
60307.2 43549.3 lineto
59952.8 43549.3 lineto
59952.8 43076.9 lineto
poly1
0 0 0 setrgbcolor
newpath
77952.8 42210.7 moveto
78307.2 42210.7 lineto
78307.2 42683.1 lineto
77952.8 42683.1 lineto
77952.8 42210.7 lineto
poly1
0 0 0 setrgbcolor
newpath
77952.8 43076.9 moveto
78307.2 43076.9 lineto
78307.2 43549.3 lineto
77952.8 43549.3 lineto
77952.8 43076.9 lineto
poly1
0 0 0 setrgbcolor
newpath
24307.2 41549.3 moveto
23952.8 41549.3 lineto
23952.8 41076.9 lineto
24307.2 41076.9 lineto
24307.2 41549.3 lineto
poly1
0 0 0 setrgbcolor
newpath
24307.2 40683.1 moveto
23952.8 40683.1 lineto
23952.8 40210.7 lineto
24307.2 40210.7 lineto
24307.2 40683.1 lineto
poly1
0 0 0 setrgbcolor
newpath
42807.2 41549.3 moveto
42452.8 41549.3 lineto
42452.8 41076.9 lineto
42807.2 41076.9 lineto
42807.2 41549.3 lineto
poly1
0 0 0 setrgbcolor
newpath
42807.2 40683.1 moveto
42452.8 40683.1 lineto
42452.8 40210.7 lineto
42807.2 40210.7 lineto
42807.2 40683.1 lineto
poly1
0 0 0 setrgbcolor
newpath
60307.2 41549.3 moveto
59952.8 41549.3 lineto
59952.8 41076.9 lineto
60307.2 41076.9 lineto
60307.2 41549.3 lineto
poly1
0 0 0 setrgbcolor
newpath
60307.2 40683.1 moveto
59952.8 40683.1 lineto
59952.8 40210.7 lineto
60307.2 40210.7 lineto
60307.2 40683.1 lineto
poly1
0 0 0 setrgbcolor
newpath
78307.2 41549.3 moveto
77952.8 41549.3 lineto
77952.8 41076.9 lineto
78307.2 41076.9 lineto
78307.2 41549.3 lineto
poly1
0 0 0 setrgbcolor
newpath
78307.2 40683.1 moveto
77952.8 40683.1 lineto
77952.8 40210.7 lineto
78307.2 40210.7 lineto
78307.2 40683.1 lineto
poly1
0 0 0 setrgbcolor
newpath
28311.1 43045.4 moveto
28311.1 43714.6 lineto
27523.7 43714.6 lineto
27523.7 43045.4 lineto
28311.1 43045.4 lineto
poly1
0 0 0 setrgbcolor
newpath
26736.3 43045.4 moveto
26736.3 43714.6 lineto
25948.9 43714.6 lineto
25948.9 43045.4 lineto
26736.3 43045.4 lineto
poly1
0 0 0 setrgbcolor
newpath
46311.1 43045.4 moveto
46311.1 43714.6 lineto
45523.7 43714.6 lineto
45523.7 43045.4 lineto
46311.1 43045.4 lineto
poly1
0 0 0 setrgbcolor
newpath
44736.3 43045.4 moveto
44736.3 43714.6 lineto
43948.9 43714.6 lineto
43948.9 43045.4 lineto
44736.3 43045.4 lineto
poly1
0 0 0 setrgbcolor
newpath
64311.1 43045.4 moveto
64311.1 43714.6 lineto
63523.7 43714.6 lineto
63523.7 43045.4 lineto
64311.1 43045.4 lineto
poly1
0 0 0 setrgbcolor
newpath
62736.3 43045.4 moveto
62736.3 43714.6 lineto
61948.9 43714.6 lineto
61948.9 43045.4 lineto
62736.3 43045.4 lineto
poly1
0 0 0 setrgbcolor
newpath
82311.1 43045.4 moveto
82311.1 43714.6 lineto
81523.7 43714.6 lineto
81523.7 43045.4 lineto
82311.1 43045.4 lineto
poly1
0 0 0 setrgbcolor
newpath
80736.3 43045.4 moveto
80736.3 43714.6 lineto
79948.9 43714.6 lineto
79948.9 43045.4 lineto
80736.3 43045.4 lineto
poly1
0 0 0 setrgbcolor
newpath
28311.1 40045.4 moveto
28311.1 40714.6 lineto
27523.7 40714.6 lineto
27523.7 40045.4 lineto
28311.1 40045.4 lineto
poly1
0 0 0 setrgbcolor
newpath
26736.3 40045.4 moveto
26736.3 40714.6 lineto
25948.9 40714.6 lineto
25948.9 40045.4 lineto
26736.3 40045.4 lineto
poly1
0 0 0 setrgbcolor
newpath
46311.1 40045.4 moveto
46311.1 40714.6 lineto
45523.7 40714.6 lineto
45523.7 40045.4 lineto
46311.1 40045.4 lineto
poly1
0 0 0 setrgbcolor
newpath
44736.3 40045.4 moveto
44736.3 40714.6 lineto
43948.9 40714.6 lineto
43948.9 40045.4 lineto
44736.3 40045.4 lineto
poly1
0 0 0 setrgbcolor
newpath
64311.1 40045.4 moveto
64311.1 40714.6 lineto
63523.7 40714.6 lineto
63523.7 40045.4 lineto
64311.1 40045.4 lineto
poly1
0 0 0 setrgbcolor
newpath
62736.3 40045.4 moveto
62736.3 40714.6 lineto
61948.9 40714.6 lineto
61948.9 40045.4 lineto
62736.3 40045.4 lineto
poly1
0 0 0 setrgbcolor
newpath
82311.1 40045.4 moveto
82311.1 40714.6 lineto
81523.7 40714.6 lineto
81523.7 40045.4 lineto
82311.1 40045.4 lineto
poly1
0 0 0 setrgbcolor
newpath
80736.3 40045.4 moveto
80736.3 40714.6 lineto
79948.9 40714.6 lineto
79948.9 40045.4 lineto
80736.3 40045.4 lineto
poly1
0 0 0 setrgbcolor
newpath
34311.1 43045.4 moveto
34311.1 43714.6 lineto
33523.7 43714.6 lineto
33523.7 43045.4 lineto
34311.1 43045.4 lineto
poly1
0 0 0 setrgbcolor
newpath
32736.3 43045.4 moveto
32736.3 43714.6 lineto
31948.9 43714.6 lineto
31948.9 43045.4 lineto
32736.3 43045.4 lineto
poly1
0 0 0 setrgbcolor
newpath
52311.1 43045.4 moveto
52311.1 43714.6 lineto
51523.7 43714.6 lineto
51523.7 43045.4 lineto
52311.1 43045.4 lineto
poly1
0 0 0 setrgbcolor
newpath
50736.3 43045.4 moveto
50736.3 43714.6 lineto
49948.9 43714.6 lineto
49948.9 43045.4 lineto
50736.3 43045.4 lineto
poly1
0 0 0 setrgbcolor
newpath
70311.1 43045.4 moveto
70311.1 43714.6 lineto
69523.7 43714.6 lineto
69523.7 43045.4 lineto
70311.1 43045.4 lineto
poly1
0 0 0 setrgbcolor
newpath
68736.3 43045.4 moveto
68736.3 43714.6 lineto
67948.9 43714.6 lineto
67948.9 43045.4 lineto
68736.3 43045.4 lineto
poly1
0 0 0 setrgbcolor
newpath
88311.1 43045.4 moveto
88311.1 43714.6 lineto
87523.7 43714.6 lineto
87523.7 43045.4 lineto
88311.1 43045.4 lineto
poly1
0 0 0 setrgbcolor
newpath
86736.3 43045.4 moveto
86736.3 43714.6 lineto
85948.9 43714.6 lineto
85948.9 43045.4 lineto
86736.3 43045.4 lineto
poly1
0 0 0 setrgbcolor
newpath
34311.1 40045.4 moveto
34311.1 40714.6 lineto
33523.7 40714.6 lineto
33523.7 40045.4 lineto
34311.1 40045.4 lineto
poly1
0 0 0 setrgbcolor
newpath
32736.3 40045.4 moveto
32736.3 40714.6 lineto
31948.9 40714.6 lineto
31948.9 40045.4 lineto
32736.3 40045.4 lineto
poly1
0 0 0 setrgbcolor
newpath
52311.1 40045.4 moveto
52311.1 40714.6 lineto
51523.7 40714.6 lineto
51523.7 40045.4 lineto
52311.1 40045.4 lineto
poly1
0 0 0 setrgbcolor
newpath
50736.3 40045.4 moveto
50736.3 40714.6 lineto
49948.9 40714.6 lineto
49948.9 40045.4 lineto
50736.3 40045.4 lineto
poly1
0 0 0 setrgbcolor
newpath
70311.1 40045.4 moveto
70311.1 40714.6 lineto
69523.7 40714.6 lineto
69523.7 40045.4 lineto
70311.1 40045.4 lineto
poly1
0 0 0 setrgbcolor
newpath
68736.3 40045.4 moveto
68736.3 40714.6 lineto
67948.9 40714.6 lineto
67948.9 40045.4 lineto
68736.3 40045.4 lineto
poly1
0 0 0 setrgbcolor
newpath
88311.1 40045.4 moveto
88311.1 40714.6 lineto
87523.7 40714.6 lineto
87523.7 40045.4 lineto
88311.1 40045.4 lineto
poly1
0 0 0 setrgbcolor
newpath
86736.3 40045.4 moveto
86736.3 40714.6 lineto
85948.9 40714.6 lineto
85948.9 40045.4 lineto
86736.3 40045.4 lineto
poly1
0 0 0 setrgbcolor
newpath
40311.1 43045.4 moveto
40311.1 43714.6 lineto
39523.7 43714.6 lineto
39523.7 43045.4 lineto
40311.1 43045.4 lineto
poly1
0 0 0 setrgbcolor
newpath
38736.3 43045.4 moveto
38736.3 43714.6 lineto
37948.9 43714.6 lineto
37948.9 43045.4 lineto
38736.3 43045.4 lineto
poly1
0 0 0 setrgbcolor
newpath
58311.1 43045.4 moveto
58311.1 43714.6 lineto
57523.7 43714.6 lineto
57523.7 43045.4 lineto
58311.1 43045.4 lineto
poly1
0 0 0 setrgbcolor
newpath
56736.3 43045.4 moveto
56736.3 43714.6 lineto
55948.9 43714.6 lineto
55948.9 43045.4 lineto
56736.3 43045.4 lineto
poly1
0 0 0 setrgbcolor
newpath
76311.1 43045.4 moveto
76311.1 43714.6 lineto
75523.7 43714.6 lineto
75523.7 43045.4 lineto
76311.1 43045.4 lineto
poly1
0 0 0 setrgbcolor
newpath
74736.3 43045.4 moveto
74736.3 43714.6 lineto
73948.9 43714.6 lineto
73948.9 43045.4 lineto
74736.3 43045.4 lineto
poly1
0 0 0 setrgbcolor
newpath
94311.1 43045.4 moveto
94311.1 43714.6 lineto
93523.7 43714.6 lineto
93523.7 43045.4 lineto
94311.1 43045.4 lineto
poly1
0 0 0 setrgbcolor
newpath
92736.3 43045.4 moveto
92736.3 43714.6 lineto
91948.9 43714.6 lineto
91948.9 43045.4 lineto
92736.3 43045.4 lineto
poly1
0 0 0 setrgbcolor
newpath
40311.1 40045.4 moveto
40311.1 40714.6 lineto
39523.7 40714.6 lineto
39523.7 40045.4 lineto
40311.1 40045.4 lineto
poly1
0 0 0 setrgbcolor
newpath
38736.3 40045.4 moveto
38736.3 40714.6 lineto
37948.9 40714.6 lineto
37948.9 40045.4 lineto
38736.3 40045.4 lineto
poly1
0 0 0 setrgbcolor
newpath
58311.1 40045.4 moveto
58311.1 40714.6 lineto
57523.7 40714.6 lineto
57523.7 40045.4 lineto
58311.1 40045.4 lineto
poly1
0 0 0 setrgbcolor
newpath
56736.3 40045.4 moveto
56736.3 40714.6 lineto
55948.9 40714.6 lineto
55948.9 40045.4 lineto
56736.3 40045.4 lineto
poly1
0 0 0 setrgbcolor
newpath
76311.1 40045.4 moveto
76311.1 40714.6 lineto
75523.7 40714.6 lineto
75523.7 40045.4 lineto
76311.1 40045.4 lineto
poly1
0 0 0 setrgbcolor
newpath
74736.3 40045.4 moveto
74736.3 40714.6 lineto
73948.9 40714.6 lineto
73948.9 40045.4 lineto
74736.3 40045.4 lineto
poly1
0 0 0 setrgbcolor
newpath
94311.1 40045.4 moveto
94311.1 40714.6 lineto
93523.7 40714.6 lineto
93523.7 40045.4 lineto
94311.1 40045.4 lineto
poly1
0 0 0 setrgbcolor
newpath
92736.3 40045.4 moveto
92736.3 40714.6 lineto
91948.9 40714.6 lineto
91948.9 40045.4 lineto
92736.3 40045.4 lineto
poly1
0 0 0 setrgbcolor
newpath
94311.1 49545.4 moveto
94311.1 50214.6 lineto
93523.7 50214.6 lineto
93523.7 49545.4 lineto
94311.1 49545.4 lineto
poly1
0 0 0 setrgbcolor
newpath
92736.3 49545.4 moveto
92736.3 50214.6 lineto
91948.9 50214.6 lineto
91948.9 49545.4 lineto
92736.3 49545.4 lineto
poly1
0 0 0 setrgbcolor
newpath
76311.1 49545.4 moveto
76311.1 50214.6 lineto
75523.7 50214.6 lineto
75523.7 49545.4 lineto
76311.1 49545.4 lineto
poly1
0 0 0 setrgbcolor
newpath
74736.3 49545.4 moveto
74736.3 50214.6 lineto
73948.9 50214.6 lineto
73948.9 49545.4 lineto
74736.3 49545.4 lineto
poly1
0 0 0 setrgbcolor
newpath
58311.1 49545.4 moveto
58311.1 50214.6 lineto
57523.7 50214.6 lineto
57523.7 49545.4 lineto
58311.1 49545.4 lineto
poly1
0 0 0 setrgbcolor
newpath
56736.3 49545.4 moveto
56736.3 50214.6 lineto
55948.9 50214.6 lineto
55948.9 49545.4 lineto
56736.3 49545.4 lineto
poly1
0 0 0 setrgbcolor
newpath
40311.1 49545.4 moveto
40311.1 50214.6 lineto
39523.7 50214.6 lineto
39523.7 49545.4 lineto
40311.1 49545.4 lineto
poly1
0 0 0 setrgbcolor
newpath
38736.3 49545.4 moveto
38736.3 50214.6 lineto
37948.9 50214.6 lineto
37948.9 49545.4 lineto
38736.3 49545.4 lineto
poly1
0 0 0 setrgbcolor
newpath
94311.1 52545.4 moveto
94311.1 53214.6 lineto
93523.7 53214.6 lineto
93523.7 52545.4 lineto
94311.1 52545.4 lineto
poly1
0 0 0 setrgbcolor
newpath
92736.3 52545.4 moveto
92736.3 53214.6 lineto
91948.9 53214.6 lineto
91948.9 52545.4 lineto
92736.3 52545.4 lineto
poly1
0 0 0 setrgbcolor
newpath
76311.1 52545.4 moveto
76311.1 53214.6 lineto
75523.7 53214.6 lineto
75523.7 52545.4 lineto
76311.1 52545.4 lineto
poly1
0 0 0 setrgbcolor
newpath
74736.3 52545.4 moveto
74736.3 53214.6 lineto
73948.9 53214.6 lineto
73948.9 52545.4 lineto
74736.3 52545.4 lineto
poly1
0 0 0 setrgbcolor
newpath
58311.1 52545.4 moveto
58311.1 53214.6 lineto
57523.7 53214.6 lineto
57523.7 52545.4 lineto
58311.1 52545.4 lineto
poly1
0 0 0 setrgbcolor
newpath
56736.3 52545.4 moveto
56736.3 53214.6 lineto
55948.9 53214.6 lineto
55948.9 52545.4 lineto
56736.3 52545.4 lineto
poly1
0 0 0 setrgbcolor
newpath
40311.1 52545.4 moveto
40311.1 53214.6 lineto
39523.7 53214.6 lineto
39523.7 52545.4 lineto
40311.1 52545.4 lineto
poly1
0 0 0 setrgbcolor
newpath
38736.3 52545.4 moveto
38736.3 53214.6 lineto
37948.9 53214.6 lineto
37948.9 52545.4 lineto
38736.3 52545.4 lineto
poly1
0 0 0 setrgbcolor
newpath
88311.1 49545.4 moveto
88311.1 50214.6 lineto
87523.7 50214.6 lineto
87523.7 49545.4 lineto
88311.1 49545.4 lineto
poly1
0 0 0 setrgbcolor
newpath
86736.3 49545.4 moveto
86736.3 50214.6 lineto
85948.9 50214.6 lineto
85948.9 49545.4 lineto
86736.3 49545.4 lineto
poly1
0 0 0 setrgbcolor
newpath
70311.1 49545.4 moveto
70311.1 50214.6 lineto
69523.7 50214.6 lineto
69523.7 49545.4 lineto
70311.1 49545.4 lineto
poly1
0 0 0 setrgbcolor
newpath
68736.3 49545.4 moveto
68736.3 50214.6 lineto
67948.9 50214.6 lineto
67948.9 49545.4 lineto
68736.3 49545.4 lineto
poly1
0 0 0 setrgbcolor
newpath
52311.1 49545.4 moveto
52311.1 50214.6 lineto
51523.7 50214.6 lineto
51523.7 49545.4 lineto
52311.1 49545.4 lineto
poly1
0 0 0 setrgbcolor
newpath
50736.3 49545.4 moveto
50736.3 50214.6 lineto
49948.9 50214.6 lineto
49948.9 49545.4 lineto
50736.3 49545.4 lineto
poly1
0 0 0 setrgbcolor
newpath
34311.1 49545.4 moveto
34311.1 50214.6 lineto
33523.7 50214.6 lineto
33523.7 49545.4 lineto
34311.1 49545.4 lineto
poly1
0 0 0 setrgbcolor
newpath
32736.3 49545.4 moveto
32736.3 50214.6 lineto
31948.9 50214.6 lineto
31948.9 49545.4 lineto
32736.3 49545.4 lineto
poly1
0 0 0 setrgbcolor
newpath
88311.1 52545.4 moveto
88311.1 53214.6 lineto
87523.7 53214.6 lineto
87523.7 52545.4 lineto
88311.1 52545.4 lineto
poly1
0 0 0 setrgbcolor
newpath
86736.3 52545.4 moveto
86736.3 53214.6 lineto
85948.9 53214.6 lineto
85948.9 52545.4 lineto
86736.3 52545.4 lineto
poly1
0 0 0 setrgbcolor
newpath
70311.1 52545.4 moveto
70311.1 53214.6 lineto
69523.7 53214.6 lineto
69523.7 52545.4 lineto
70311.1 52545.4 lineto
poly1
0 0 0 setrgbcolor
newpath
68736.3 52545.4 moveto
68736.3 53214.6 lineto
67948.9 53214.6 lineto
67948.9 52545.4 lineto
68736.3 52545.4 lineto
poly1
0 0 0 setrgbcolor
newpath
52311.1 52545.4 moveto
52311.1 53214.6 lineto
51523.7 53214.6 lineto
51523.7 52545.4 lineto
52311.1 52545.4 lineto
poly1
0 0 0 setrgbcolor
newpath
50736.3 52545.4 moveto
50736.3 53214.6 lineto
49948.9 53214.6 lineto
49948.9 52545.4 lineto
50736.3 52545.4 lineto
poly1
0 0 0 setrgbcolor
newpath
34311.1 52545.4 moveto
34311.1 53214.6 lineto
33523.7 53214.6 lineto
33523.7 52545.4 lineto
34311.1 52545.4 lineto
poly1
0 0 0 setrgbcolor
newpath
32736.3 52545.4 moveto
32736.3 53214.6 lineto
31948.9 53214.6 lineto
31948.9 52545.4 lineto
32736.3 52545.4 lineto
poly1
0 0 0 setrgbcolor
newpath
82311.1 49545.4 moveto
82311.1 50214.6 lineto
81523.7 50214.6 lineto
81523.7 49545.4 lineto
82311.1 49545.4 lineto
poly1
0 0 0 setrgbcolor
newpath
80736.3 49545.4 moveto
80736.3 50214.6 lineto
79948.9 50214.6 lineto
79948.9 49545.4 lineto
80736.3 49545.4 lineto
poly1
0 0 0 setrgbcolor
newpath
64311.1 49545.4 moveto
64311.1 50214.6 lineto
63523.7 50214.6 lineto
63523.7 49545.4 lineto
64311.1 49545.4 lineto
poly1
0 0 0 setrgbcolor
newpath
62736.3 49545.4 moveto
62736.3 50214.6 lineto
61948.9 50214.6 lineto
61948.9 49545.4 lineto
62736.3 49545.4 lineto
poly1
0 0 0 setrgbcolor
newpath
46311.1 49545.4 moveto
46311.1 50214.6 lineto
45523.7 50214.6 lineto
45523.7 49545.4 lineto
46311.1 49545.4 lineto
poly1
0 0 0 setrgbcolor
newpath
44736.3 49545.4 moveto
44736.3 50214.6 lineto
43948.9 50214.6 lineto
43948.9 49545.4 lineto
44736.3 49545.4 lineto
poly1
0 0 0 setrgbcolor
newpath
28311.1 49545.4 moveto
28311.1 50214.6 lineto
27523.7 50214.6 lineto
27523.7 49545.4 lineto
28311.1 49545.4 lineto
poly1
0 0 0 setrgbcolor
newpath
26736.3 49545.4 moveto
26736.3 50214.6 lineto
25948.9 50214.6 lineto
25948.9 49545.4 lineto
26736.3 49545.4 lineto
poly1
0 0 0 setrgbcolor
newpath
82311.1 52545.4 moveto
82311.1 53214.6 lineto
81523.7 53214.6 lineto
81523.7 52545.4 lineto
82311.1 52545.4 lineto
poly1
0 0 0 setrgbcolor
newpath
80736.3 52545.4 moveto
80736.3 53214.6 lineto
79948.9 53214.6 lineto
79948.9 52545.4 lineto
80736.3 52545.4 lineto
poly1
0 0 0 setrgbcolor
newpath
64311.1 52545.4 moveto
64311.1 53214.6 lineto
63523.7 53214.6 lineto
63523.7 52545.4 lineto
64311.1 52545.4 lineto
poly1
0 0 0 setrgbcolor
newpath
62736.3 52545.4 moveto
62736.3 53214.6 lineto
61948.9 53214.6 lineto
61948.9 52545.4 lineto
62736.3 52545.4 lineto
poly1
0 0 0 setrgbcolor
newpath
46311.1 52545.4 moveto
46311.1 53214.6 lineto
45523.7 53214.6 lineto
45523.7 52545.4 lineto
46311.1 52545.4 lineto
poly1
0 0 0 setrgbcolor
newpath
44736.3 52545.4 moveto
44736.3 53214.6 lineto
43948.9 53214.6 lineto
43948.9 52545.4 lineto
44736.3 52545.4 lineto
poly1
0 0 0 setrgbcolor
newpath
28311.1 52545.4 moveto
28311.1 53214.6 lineto
27523.7 53214.6 lineto
27523.7 52545.4 lineto
28311.1 52545.4 lineto
poly1
0 0 0 setrgbcolor
newpath
26736.3 52545.4 moveto
26736.3 53214.6 lineto
25948.9 53214.6 lineto
25948.9 52545.4 lineto
26736.3 52545.4 lineto
poly1
0 0 0 setrgbcolor
newpath
78307.2 51049.3 moveto
77952.8 51049.3 lineto
77952.8 50576.9 lineto
78307.2 50576.9 lineto
78307.2 51049.3 lineto
poly1
0 0 0 setrgbcolor
newpath
78307.2 50183.1 moveto
77952.8 50183.1 lineto
77952.8 49710.7 lineto
78307.2 49710.7 lineto
78307.2 50183.1 lineto
poly1
0 0 0 setrgbcolor
newpath
60307.2 51049.3 moveto
59952.8 51049.3 lineto
59952.8 50576.9 lineto
60307.2 50576.9 lineto
60307.2 51049.3 lineto
poly1
0 0 0 setrgbcolor
newpath
60307.2 50183.1 moveto
59952.8 50183.1 lineto
59952.8 49710.7 lineto
60307.2 49710.7 lineto
60307.2 50183.1 lineto
poly1
0 0 0 setrgbcolor
newpath
42807.2 51049.3 moveto
42452.8 51049.3 lineto
42452.8 50576.9 lineto
42807.2 50576.9 lineto
42807.2 51049.3 lineto
poly1
0 0 0 setrgbcolor
newpath
42807.2 50183.1 moveto
42452.8 50183.1 lineto
42452.8 49710.7 lineto
42807.2 49710.7 lineto
42807.2 50183.1 lineto
poly1
0 0 0 setrgbcolor
newpath
24307.2 51049.3 moveto
23952.8 51049.3 lineto
23952.8 50576.9 lineto
24307.2 50576.9 lineto
24307.2 51049.3 lineto
poly1
0 0 0 setrgbcolor
newpath
24307.2 50183.1 moveto
23952.8 50183.1 lineto
23952.8 49710.7 lineto
24307.2 49710.7 lineto
24307.2 50183.1 lineto
poly1
0 0 0 setrgbcolor
newpath
77952.8 51710.7 moveto
78307.2 51710.7 lineto
78307.2 52183.1 lineto
77952.8 52183.1 lineto
77952.8 51710.7 lineto
poly1
0 0 0 setrgbcolor
newpath
77952.8 52576.9 moveto
78307.2 52576.9 lineto
78307.2 53049.3 lineto
77952.8 53049.3 lineto
77952.8 52576.9 lineto
poly1
0 0 0 setrgbcolor
newpath
59952.8 51710.7 moveto
60307.2 51710.7 lineto
60307.2 52183.1 lineto
59952.8 52183.1 lineto
59952.8 51710.7 lineto
poly1
0 0 0 setrgbcolor
newpath
59952.8 52576.9 moveto
60307.2 52576.9 lineto
60307.2 53049.3 lineto
59952.8 53049.3 lineto
59952.8 52576.9 lineto
poly1
0 0 0 setrgbcolor
newpath
42452.8 51710.7 moveto
42807.2 51710.7 lineto
42807.2 52183.1 lineto
42452.8 52183.1 lineto
42452.8 51710.7 lineto
poly1
0 0 0 setrgbcolor
newpath
42452.8 52576.9 moveto
42807.2 52576.9 lineto
42807.2 53049.3 lineto
42452.8 53049.3 lineto
42452.8 52576.9 lineto
poly1
0 0 0 setrgbcolor
newpath
23952.8 51710.7 moveto
24307.2 51710.7 lineto
24307.2 52183.1 lineto
23952.8 52183.1 lineto
23952.8 51710.7 lineto
poly1
0 0 0 setrgbcolor
newpath
23952.8 52576.9 moveto
24307.2 52576.9 lineto
24307.2 53049.3 lineto
23952.8 53049.3 lineto
23952.8 52576.9 lineto
poly1
0 0 0 setrgbcolor
newpath
23030 51480 moveto
23030 52280 lineto
22230 52280 lineto
22230 51480 lineto
23030 51480 lineto
poly1
0 0 0 setrgbcolor
800 setlinewidth
newpath
22630 50880 moveto
22630 50880 lineto
stroke
0 0 0 setrgbcolor
0 setlinewidth
newpath
23030 71480 moveto
23030 72280 lineto
22230 72280 lineto
22230 71480 lineto
23030 71480 lineto
poly1
0 0 0 setrgbcolor
800 setlinewidth
newpath
22630 70880 moveto
22630 70880 lineto
stroke
0 0 0 setrgbcolor
0 setlinewidth
newpath
23952.8 71710.7 moveto
24307.2 71710.7 lineto
24307.2 72183.1 lineto
23952.8 72183.1 lineto
23952.8 71710.7 lineto
poly1
0 0 0 setrgbcolor
newpath
23952.8 72576.9 moveto
24307.2 72576.9 lineto
24307.2 73049.3 lineto
23952.8 73049.3 lineto
23952.8 72576.9 lineto
poly1
0 0 0 setrgbcolor
newpath
42452.8 71710.7 moveto
42807.2 71710.7 lineto
42807.2 72183.1 lineto
42452.8 72183.1 lineto
42452.8 71710.7 lineto
poly1
0 0 0 setrgbcolor
newpath
42452.8 72576.9 moveto
42807.2 72576.9 lineto
42807.2 73049.3 lineto
42452.8 73049.3 lineto
42452.8 72576.9 lineto
poly1
0 0 0 setrgbcolor
newpath
59952.8 71710.7 moveto
60307.2 71710.7 lineto
60307.2 72183.1 lineto
59952.8 72183.1 lineto
59952.8 71710.7 lineto
poly1
0 0 0 setrgbcolor
newpath
59952.8 72576.9 moveto
60307.2 72576.9 lineto
60307.2 73049.3 lineto
59952.8 73049.3 lineto
59952.8 72576.9 lineto
poly1
0 0 0 setrgbcolor
newpath
77952.8 71710.7 moveto
78307.2 71710.7 lineto
78307.2 72183.1 lineto
77952.8 72183.1 lineto
77952.8 71710.7 lineto
poly1
0 0 0 setrgbcolor
newpath
77952.8 72576.9 moveto
78307.2 72576.9 lineto
78307.2 73049.3 lineto
77952.8 73049.3 lineto
77952.8 72576.9 lineto
poly1
0 0 0 setrgbcolor
newpath
24307.2 71049.3 moveto
23952.8 71049.3 lineto
23952.8 70576.9 lineto
24307.2 70576.9 lineto
24307.2 71049.3 lineto
poly1
0 0 0 setrgbcolor
newpath
24307.2 70183.1 moveto
23952.8 70183.1 lineto
23952.8 69710.7 lineto
24307.2 69710.7 lineto
24307.2 70183.1 lineto
poly1
0 0 0 setrgbcolor
newpath
42807.2 71049.3 moveto
42452.8 71049.3 lineto
42452.8 70576.9 lineto
42807.2 70576.9 lineto
42807.2 71049.3 lineto
poly1
0 0 0 setrgbcolor
newpath
42807.2 70183.1 moveto
42452.8 70183.1 lineto
42452.8 69710.7 lineto
42807.2 69710.7 lineto
42807.2 70183.1 lineto
poly1
0 0 0 setrgbcolor
newpath
60307.2 71049.3 moveto
59952.8 71049.3 lineto
59952.8 70576.9 lineto
60307.2 70576.9 lineto
60307.2 71049.3 lineto
poly1
0 0 0 setrgbcolor
newpath
60307.2 70183.1 moveto
59952.8 70183.1 lineto
59952.8 69710.7 lineto
60307.2 69710.7 lineto
60307.2 70183.1 lineto
poly1
0 0 0 setrgbcolor
newpath
78307.2 71049.3 moveto
77952.8 71049.3 lineto
77952.8 70576.9 lineto
78307.2 70576.9 lineto
78307.2 71049.3 lineto
poly1
0 0 0 setrgbcolor
newpath
78307.2 70183.1 moveto
77952.8 70183.1 lineto
77952.8 69710.7 lineto
78307.2 69710.7 lineto
78307.2 70183.1 lineto
poly1
0 0 0 setrgbcolor
newpath
96230 71280 moveto
96230 70480 lineto
97030 70480 lineto
97030 71280 lineto
96230 71280 lineto
poly1
0 0 0 setrgbcolor
800 setlinewidth
newpath
96630 71880 moveto
96630 71880 lineto
stroke
0 0 0 setrgbcolor
0 setlinewidth
newpath
28311.1 72545.4 moveto
28311.1 73214.6 lineto
27523.7 73214.6 lineto
27523.7 72545.4 lineto
28311.1 72545.4 lineto
poly1
0 0 0 setrgbcolor
newpath
26736.3 72545.4 moveto
26736.3 73214.6 lineto
25948.9 73214.6 lineto
25948.9 72545.4 lineto
26736.3 72545.4 lineto
poly1
0 0 0 setrgbcolor
newpath
46311.1 72545.4 moveto
46311.1 73214.6 lineto
45523.7 73214.6 lineto
45523.7 72545.4 lineto
46311.1 72545.4 lineto
poly1
0 0 0 setrgbcolor
newpath
44736.3 72545.4 moveto
44736.3 73214.6 lineto
43948.9 73214.6 lineto
43948.9 72545.4 lineto
44736.3 72545.4 lineto
poly1
0 0 0 setrgbcolor
newpath
64311.1 72545.4 moveto
64311.1 73214.6 lineto
63523.7 73214.6 lineto
63523.7 72545.4 lineto
64311.1 72545.4 lineto
poly1
0 0 0 setrgbcolor
newpath
62736.3 72545.4 moveto
62736.3 73214.6 lineto
61948.9 73214.6 lineto
61948.9 72545.4 lineto
62736.3 72545.4 lineto
poly1
0 0 0 setrgbcolor
newpath
82311.1 72545.4 moveto
82311.1 73214.6 lineto
81523.7 73214.6 lineto
81523.7 72545.4 lineto
82311.1 72545.4 lineto
poly1
0 0 0 setrgbcolor
newpath
80736.3 72545.4 moveto
80736.3 73214.6 lineto
79948.9 73214.6 lineto
79948.9 72545.4 lineto
80736.3 72545.4 lineto
poly1
0 0 0 setrgbcolor
newpath
28311.1 69545.4 moveto
28311.1 70214.6 lineto
27523.7 70214.6 lineto
27523.7 69545.4 lineto
28311.1 69545.4 lineto
poly1
0 0 0 setrgbcolor
newpath
26736.3 69545.4 moveto
26736.3 70214.6 lineto
25948.9 70214.6 lineto
25948.9 69545.4 lineto
26736.3 69545.4 lineto
poly1
0 0 0 setrgbcolor
newpath
46311.1 69545.4 moveto
46311.1 70214.6 lineto
45523.7 70214.6 lineto
45523.7 69545.4 lineto
46311.1 69545.4 lineto
poly1
0 0 0 setrgbcolor
newpath
44736.3 69545.4 moveto
44736.3 70214.6 lineto
43948.9 70214.6 lineto
43948.9 69545.4 lineto
44736.3 69545.4 lineto
poly1
0 0 0 setrgbcolor
newpath
64311.1 69545.4 moveto
64311.1 70214.6 lineto
63523.7 70214.6 lineto
63523.7 69545.4 lineto
64311.1 69545.4 lineto
poly1
0 0 0 setrgbcolor
newpath
62736.3 69545.4 moveto
62736.3 70214.6 lineto
61948.9 70214.6 lineto
61948.9 69545.4 lineto
62736.3 69545.4 lineto
poly1
0 0 0 setrgbcolor
newpath
82311.1 69545.4 moveto
82311.1 70214.6 lineto
81523.7 70214.6 lineto
81523.7 69545.4 lineto
82311.1 69545.4 lineto
poly1
0 0 0 setrgbcolor
newpath
80736.3 69545.4 moveto
80736.3 70214.6 lineto
79948.9 70214.6 lineto
79948.9 69545.4 lineto
80736.3 69545.4 lineto
poly1
0 0 0 setrgbcolor
newpath
34311.1 72545.4 moveto
34311.1 73214.6 lineto
33523.7 73214.6 lineto
33523.7 72545.4 lineto
34311.1 72545.4 lineto
poly1
0 0 0 setrgbcolor
newpath
32736.3 72545.4 moveto
32736.3 73214.6 lineto
31948.9 73214.6 lineto
31948.9 72545.4 lineto
32736.3 72545.4 lineto
poly1
0 0 0 setrgbcolor
newpath
52311.1 72545.4 moveto
52311.1 73214.6 lineto
51523.7 73214.6 lineto
51523.7 72545.4 lineto
52311.1 72545.4 lineto
poly1
0 0 0 setrgbcolor
newpath
50736.3 72545.4 moveto
50736.3 73214.6 lineto
49948.9 73214.6 lineto
49948.9 72545.4 lineto
50736.3 72545.4 lineto
poly1
0 0 0 setrgbcolor
newpath
70311.1 72545.4 moveto
70311.1 73214.6 lineto
69523.7 73214.6 lineto
69523.7 72545.4 lineto
70311.1 72545.4 lineto
poly1
0 0 0 setrgbcolor
newpath
68736.3 72545.4 moveto
68736.3 73214.6 lineto
67948.9 73214.6 lineto
67948.9 72545.4 lineto
68736.3 72545.4 lineto
poly1
0 0 0 setrgbcolor
newpath
88311.1 72545.4 moveto
88311.1 73214.6 lineto
87523.7 73214.6 lineto
87523.7 72545.4 lineto
88311.1 72545.4 lineto
poly1
0 0 0 setrgbcolor
newpath
86736.3 72545.4 moveto
86736.3 73214.6 lineto
85948.9 73214.6 lineto
85948.9 72545.4 lineto
86736.3 72545.4 lineto
poly1
0 0 0 setrgbcolor
newpath
34311.1 69545.4 moveto
34311.1 70214.6 lineto
33523.7 70214.6 lineto
33523.7 69545.4 lineto
34311.1 69545.4 lineto
poly1
0 0 0 setrgbcolor
newpath
32736.3 69545.4 moveto
32736.3 70214.6 lineto
31948.9 70214.6 lineto
31948.9 69545.4 lineto
32736.3 69545.4 lineto
poly1
0 0 0 setrgbcolor
newpath
52311.1 69545.4 moveto
52311.1 70214.6 lineto
51523.7 70214.6 lineto
51523.7 69545.4 lineto
52311.1 69545.4 lineto
poly1
0 0 0 setrgbcolor
newpath
50736.3 69545.4 moveto
50736.3 70214.6 lineto
49948.9 70214.6 lineto
49948.9 69545.4 lineto
50736.3 69545.4 lineto
poly1
0 0 0 setrgbcolor
newpath
70311.1 69545.4 moveto
70311.1 70214.6 lineto
69523.7 70214.6 lineto
69523.7 69545.4 lineto
70311.1 69545.4 lineto
poly1
0 0 0 setrgbcolor
newpath
68736.3 69545.4 moveto
68736.3 70214.6 lineto
67948.9 70214.6 lineto
67948.9 69545.4 lineto
68736.3 69545.4 lineto
poly1
0 0 0 setrgbcolor
newpath
88311.1 69545.4 moveto
88311.1 70214.6 lineto
87523.7 70214.6 lineto
87523.7 69545.4 lineto
88311.1 69545.4 lineto
poly1
0 0 0 setrgbcolor
newpath
86736.3 69545.4 moveto
86736.3 70214.6 lineto
85948.9 70214.6 lineto
85948.9 69545.4 lineto
86736.3 69545.4 lineto
poly1
0 0 0 setrgbcolor
newpath
40311.1 72545.4 moveto
40311.1 73214.6 lineto
39523.7 73214.6 lineto
39523.7 72545.4 lineto
40311.1 72545.4 lineto
poly1
0 0 0 setrgbcolor
newpath
38736.3 72545.4 moveto
38736.3 73214.6 lineto
37948.9 73214.6 lineto
37948.9 72545.4 lineto
38736.3 72545.4 lineto
poly1
0 0 0 setrgbcolor
newpath
58311.1 72545.4 moveto
58311.1 73214.6 lineto
57523.7 73214.6 lineto
57523.7 72545.4 lineto
58311.1 72545.4 lineto
poly1
0 0 0 setrgbcolor
newpath
56736.3 72545.4 moveto
56736.3 73214.6 lineto
55948.9 73214.6 lineto
55948.9 72545.4 lineto
56736.3 72545.4 lineto
poly1
0 0 0 setrgbcolor
newpath
76311.1 72545.4 moveto
76311.1 73214.6 lineto
75523.7 73214.6 lineto
75523.7 72545.4 lineto
76311.1 72545.4 lineto
poly1
0 0 0 setrgbcolor
newpath
74736.3 72545.4 moveto
74736.3 73214.6 lineto
73948.9 73214.6 lineto
73948.9 72545.4 lineto
74736.3 72545.4 lineto
poly1
0 0 0 setrgbcolor
newpath
94311.1 72545.4 moveto
94311.1 73214.6 lineto
93523.7 73214.6 lineto
93523.7 72545.4 lineto
94311.1 72545.4 lineto
poly1
0 0 0 setrgbcolor
newpath
92736.3 72545.4 moveto
92736.3 73214.6 lineto
91948.9 73214.6 lineto
91948.9 72545.4 lineto
92736.3 72545.4 lineto
poly1
0 0 0 setrgbcolor
newpath
40311.1 69545.4 moveto
40311.1 70214.6 lineto
39523.7 70214.6 lineto
39523.7 69545.4 lineto
40311.1 69545.4 lineto
poly1
0 0 0 setrgbcolor
newpath
38736.3 69545.4 moveto
38736.3 70214.6 lineto
37948.9 70214.6 lineto
37948.9 69545.4 lineto
38736.3 69545.4 lineto
poly1
0 0 0 setrgbcolor
newpath
58311.1 69545.4 moveto
58311.1 70214.6 lineto
57523.7 70214.6 lineto
57523.7 69545.4 lineto
58311.1 69545.4 lineto
poly1
0 0 0 setrgbcolor
newpath
56736.3 69545.4 moveto
56736.3 70214.6 lineto
55948.9 70214.6 lineto
55948.9 69545.4 lineto
56736.3 69545.4 lineto
poly1
0 0 0 setrgbcolor
newpath
76311.1 69545.4 moveto
76311.1 70214.6 lineto
75523.7 70214.6 lineto
75523.7 69545.4 lineto
76311.1 69545.4 lineto
poly1
0 0 0 setrgbcolor
newpath
74736.3 69545.4 moveto
74736.3 70214.6 lineto
73948.9 70214.6 lineto
73948.9 69545.4 lineto
74736.3 69545.4 lineto
poly1
0 0 0 setrgbcolor
newpath
94311.1 69545.4 moveto
94311.1 70214.6 lineto
93523.7 70214.6 lineto
93523.7 69545.4 lineto
94311.1 69545.4 lineto
poly1
0 0 0 setrgbcolor
newpath
92736.3 69545.4 moveto
92736.3 70214.6 lineto
91948.9 70214.6 lineto
91948.9 69545.4 lineto
92736.3 69545.4 lineto
poly1
0 0 0 setrgbcolor
newpath
94311.1 60045.4 moveto
94311.1 60714.6 lineto
93523.7 60714.6 lineto
93523.7 60045.4 lineto
94311.1 60045.4 lineto
poly1
0 0 0 setrgbcolor
newpath
92736.3 60045.4 moveto
92736.3 60714.6 lineto
91948.9 60714.6 lineto
91948.9 60045.4 lineto
92736.3 60045.4 lineto
poly1
0 0 0 setrgbcolor
newpath
76311.1 60045.4 moveto
76311.1 60714.6 lineto
75523.7 60714.6 lineto
75523.7 60045.4 lineto
76311.1 60045.4 lineto
poly1
0 0 0 setrgbcolor
newpath
74736.3 60045.4 moveto
74736.3 60714.6 lineto
73948.9 60714.6 lineto
73948.9 60045.4 lineto
74736.3 60045.4 lineto
poly1
0 0 0 setrgbcolor
newpath
58311.1 60045.4 moveto
58311.1 60714.6 lineto
57523.7 60714.6 lineto
57523.7 60045.4 lineto
58311.1 60045.4 lineto
poly1
0 0 0 setrgbcolor
newpath
56736.3 60045.4 moveto
56736.3 60714.6 lineto
55948.9 60714.6 lineto
55948.9 60045.4 lineto
56736.3 60045.4 lineto
poly1
0 0 0 setrgbcolor
newpath
40311.1 60045.4 moveto
40311.1 60714.6 lineto
39523.7 60714.6 lineto
39523.7 60045.4 lineto
40311.1 60045.4 lineto
poly1
0 0 0 setrgbcolor
newpath
38736.3 60045.4 moveto
38736.3 60714.6 lineto
37948.9 60714.6 lineto
37948.9 60045.4 lineto
38736.3 60045.4 lineto
poly1
0 0 0 setrgbcolor
newpath
94311.1 63045.4 moveto
94311.1 63714.6 lineto
93523.7 63714.6 lineto
93523.7 63045.4 lineto
94311.1 63045.4 lineto
poly1
0 0 0 setrgbcolor
newpath
92736.3 63045.4 moveto
92736.3 63714.6 lineto
91948.9 63714.6 lineto
91948.9 63045.4 lineto
92736.3 63045.4 lineto
poly1
0 0 0 setrgbcolor
newpath
76311.1 63045.4 moveto
76311.1 63714.6 lineto
75523.7 63714.6 lineto
75523.7 63045.4 lineto
76311.1 63045.4 lineto
poly1
0 0 0 setrgbcolor
newpath
74736.3 63045.4 moveto
74736.3 63714.6 lineto
73948.9 63714.6 lineto
73948.9 63045.4 lineto
74736.3 63045.4 lineto
poly1
0 0 0 setrgbcolor
newpath
58311.1 63045.4 moveto
58311.1 63714.6 lineto
57523.7 63714.6 lineto
57523.7 63045.4 lineto
58311.1 63045.4 lineto
poly1
0 0 0 setrgbcolor
newpath
56736.3 63045.4 moveto
56736.3 63714.6 lineto
55948.9 63714.6 lineto
55948.9 63045.4 lineto
56736.3 63045.4 lineto
poly1
0 0 0 setrgbcolor
newpath
40311.1 63045.4 moveto
40311.1 63714.6 lineto
39523.7 63714.6 lineto
39523.7 63045.4 lineto
40311.1 63045.4 lineto
poly1
0 0 0 setrgbcolor
newpath
38736.3 63045.4 moveto
38736.3 63714.6 lineto
37948.9 63714.6 lineto
37948.9 63045.4 lineto
38736.3 63045.4 lineto
poly1
0 0 0 setrgbcolor
newpath
88311.1 60045.4 moveto
88311.1 60714.6 lineto
87523.7 60714.6 lineto
87523.7 60045.4 lineto
88311.1 60045.4 lineto
poly1
0 0 0 setrgbcolor
newpath
86736.3 60045.4 moveto
86736.3 60714.6 lineto
85948.9 60714.6 lineto
85948.9 60045.4 lineto
86736.3 60045.4 lineto
poly1
0 0 0 setrgbcolor
newpath
70311.1 60045.4 moveto
70311.1 60714.6 lineto
69523.7 60714.6 lineto
69523.7 60045.4 lineto
70311.1 60045.4 lineto
poly1
0 0 0 setrgbcolor
newpath
68736.3 60045.4 moveto
68736.3 60714.6 lineto
67948.9 60714.6 lineto
67948.9 60045.4 lineto
68736.3 60045.4 lineto
poly1
0 0 0 setrgbcolor
newpath
52311.1 60045.4 moveto
52311.1 60714.6 lineto
51523.7 60714.6 lineto
51523.7 60045.4 lineto
52311.1 60045.4 lineto
poly1
0 0 0 setrgbcolor
newpath
50736.3 60045.4 moveto
50736.3 60714.6 lineto
49948.9 60714.6 lineto
49948.9 60045.4 lineto
50736.3 60045.4 lineto
poly1
0 0 0 setrgbcolor
newpath
34311.1 60045.4 moveto
34311.1 60714.6 lineto
33523.7 60714.6 lineto
33523.7 60045.4 lineto
34311.1 60045.4 lineto
poly1
0 0 0 setrgbcolor
newpath
32736.3 60045.4 moveto
32736.3 60714.6 lineto
31948.9 60714.6 lineto
31948.9 60045.4 lineto
32736.3 60045.4 lineto
poly1
0 0 0 setrgbcolor
newpath
88311.1 63045.4 moveto
88311.1 63714.6 lineto
87523.7 63714.6 lineto
87523.7 63045.4 lineto
88311.1 63045.4 lineto
poly1
0 0 0 setrgbcolor
newpath
86736.3 63045.4 moveto
86736.3 63714.6 lineto
85948.9 63714.6 lineto
85948.9 63045.4 lineto
86736.3 63045.4 lineto
poly1
0 0 0 setrgbcolor
newpath
70311.1 63045.4 moveto
70311.1 63714.6 lineto
69523.7 63714.6 lineto
69523.7 63045.4 lineto
70311.1 63045.4 lineto
poly1
0 0 0 setrgbcolor
newpath
68736.3 63045.4 moveto
68736.3 63714.6 lineto
67948.9 63714.6 lineto
67948.9 63045.4 lineto
68736.3 63045.4 lineto
poly1
0 0 0 setrgbcolor
newpath
52311.1 63045.4 moveto
52311.1 63714.6 lineto
51523.7 63714.6 lineto
51523.7 63045.4 lineto
52311.1 63045.4 lineto
poly1
0 0 0 setrgbcolor
newpath
50736.3 63045.4 moveto
50736.3 63714.6 lineto
49948.9 63714.6 lineto
49948.9 63045.4 lineto
50736.3 63045.4 lineto
poly1
0 0 0 setrgbcolor
newpath
34311.1 63045.4 moveto
34311.1 63714.6 lineto
33523.7 63714.6 lineto
33523.7 63045.4 lineto
34311.1 63045.4 lineto
poly1
0 0 0 setrgbcolor
newpath
32736.3 63045.4 moveto
32736.3 63714.6 lineto
31948.9 63714.6 lineto
31948.9 63045.4 lineto
32736.3 63045.4 lineto
poly1
0 0 0 setrgbcolor
newpath
82311.1 60045.4 moveto
82311.1 60714.6 lineto
81523.7 60714.6 lineto
81523.7 60045.4 lineto
82311.1 60045.4 lineto
poly1
0 0 0 setrgbcolor
newpath
80736.3 60045.4 moveto
80736.3 60714.6 lineto
79948.9 60714.6 lineto
79948.9 60045.4 lineto
80736.3 60045.4 lineto
poly1
0 0 0 setrgbcolor
newpath
64311.1 60045.4 moveto
64311.1 60714.6 lineto
63523.7 60714.6 lineto
63523.7 60045.4 lineto
64311.1 60045.4 lineto
poly1
0 0 0 setrgbcolor
newpath
62736.3 60045.4 moveto
62736.3 60714.6 lineto
61948.9 60714.6 lineto
61948.9 60045.4 lineto
62736.3 60045.4 lineto
poly1
0 0 0 setrgbcolor
newpath
46311.1 60045.4 moveto
46311.1 60714.6 lineto
45523.7 60714.6 lineto
45523.7 60045.4 lineto
46311.1 60045.4 lineto
poly1
0 0 0 setrgbcolor
newpath
44736.3 60045.4 moveto
44736.3 60714.6 lineto
43948.9 60714.6 lineto
43948.9 60045.4 lineto
44736.3 60045.4 lineto
poly1
0 0 0 setrgbcolor
newpath
28311.1 60045.4 moveto
28311.1 60714.6 lineto
27523.7 60714.6 lineto
27523.7 60045.4 lineto
28311.1 60045.4 lineto
poly1
0 0 0 setrgbcolor
newpath
26736.3 60045.4 moveto
26736.3 60714.6 lineto
25948.9 60714.6 lineto
25948.9 60045.4 lineto
26736.3 60045.4 lineto
poly1
0 0 0 setrgbcolor
newpath
82311.1 63045.4 moveto
82311.1 63714.6 lineto
81523.7 63714.6 lineto
81523.7 63045.4 lineto
82311.1 63045.4 lineto
poly1
0 0 0 setrgbcolor
newpath
80736.3 63045.4 moveto
80736.3 63714.6 lineto
79948.9 63714.6 lineto
79948.9 63045.4 lineto
80736.3 63045.4 lineto
poly1
0 0 0 setrgbcolor
newpath
64311.1 63045.4 moveto
64311.1 63714.6 lineto
63523.7 63714.6 lineto
63523.7 63045.4 lineto
64311.1 63045.4 lineto
poly1
0 0 0 setrgbcolor
newpath
62736.3 63045.4 moveto
62736.3 63714.6 lineto
61948.9 63714.6 lineto
61948.9 63045.4 lineto
62736.3 63045.4 lineto
poly1
0 0 0 setrgbcolor
newpath
46311.1 63045.4 moveto
46311.1 63714.6 lineto
45523.7 63714.6 lineto
45523.7 63045.4 lineto
46311.1 63045.4 lineto
poly1
0 0 0 setrgbcolor
newpath
44736.3 63045.4 moveto
44736.3 63714.6 lineto
43948.9 63714.6 lineto
43948.9 63045.4 lineto
44736.3 63045.4 lineto
poly1
0 0 0 setrgbcolor
newpath
28311.1 63045.4 moveto
28311.1 63714.6 lineto
27523.7 63714.6 lineto
27523.7 63045.4 lineto
28311.1 63045.4 lineto
poly1
0 0 0 setrgbcolor
newpath
26736.3 63045.4 moveto
26736.3 63714.6 lineto
25948.9 63714.6 lineto
25948.9 63045.4 lineto
26736.3 63045.4 lineto
poly1
0 0 0 setrgbcolor
newpath
96230 61780 moveto
96230 60980 lineto
97030 60980 lineto
97030 61780 lineto
96230 61780 lineto
poly1
0 0 0 setrgbcolor
800 setlinewidth
newpath
96630 62380 moveto
96630 62380 lineto
stroke
0 0 0 setrgbcolor
0 setlinewidth
newpath
78307.2 61549.3 moveto
77952.8 61549.3 lineto
77952.8 61076.9 lineto
78307.2 61076.9 lineto
78307.2 61549.3 lineto
poly1
0 0 0 setrgbcolor
newpath
78307.2 60683.1 moveto
77952.8 60683.1 lineto
77952.8 60210.7 lineto
78307.2 60210.7 lineto
78307.2 60683.1 lineto
poly1
0 0 0 setrgbcolor
newpath
60307.2 61549.3 moveto
59952.8 61549.3 lineto
59952.8 61076.9 lineto
60307.2 61076.9 lineto
60307.2 61549.3 lineto
poly1
0 0 0 setrgbcolor
newpath
60307.2 60683.1 moveto
59952.8 60683.1 lineto
59952.8 60210.7 lineto
60307.2 60210.7 lineto
60307.2 60683.1 lineto
poly1
0 0 0 setrgbcolor
newpath
42807.2 61549.3 moveto
42452.8 61549.3 lineto
42452.8 61076.9 lineto
42807.2 61076.9 lineto
42807.2 61549.3 lineto
poly1
0 0 0 setrgbcolor
newpath
42807.2 60683.1 moveto
42452.8 60683.1 lineto
42452.8 60210.7 lineto
42807.2 60210.7 lineto
42807.2 60683.1 lineto
poly1
0 0 0 setrgbcolor
newpath
24307.2 61549.3 moveto
23952.8 61549.3 lineto
23952.8 61076.9 lineto
24307.2 61076.9 lineto
24307.2 61549.3 lineto
poly1
0 0 0 setrgbcolor
newpath
24307.2 60683.1 moveto
23952.8 60683.1 lineto
23952.8 60210.7 lineto
24307.2 60210.7 lineto
24307.2 60683.1 lineto
poly1
0 0 0 setrgbcolor
newpath
77952.8 62210.7 moveto
78307.2 62210.7 lineto
78307.2 62683.1 lineto
77952.8 62683.1 lineto
77952.8 62210.7 lineto
poly1
0 0 0 setrgbcolor
newpath
77952.8 63076.9 moveto
78307.2 63076.9 lineto
78307.2 63549.3 lineto
77952.8 63549.3 lineto
77952.8 63076.9 lineto
poly1
0 0 0 setrgbcolor
newpath
59952.8 62210.7 moveto
60307.2 62210.7 lineto
60307.2 62683.1 lineto
59952.8 62683.1 lineto
59952.8 62210.7 lineto
poly1
0 0 0 setrgbcolor
newpath
59952.8 63076.9 moveto
60307.2 63076.9 lineto
60307.2 63549.3 lineto
59952.8 63549.3 lineto
59952.8 63076.9 lineto
poly1
0 0 0 setrgbcolor
newpath
42452.8 62210.7 moveto
42807.2 62210.7 lineto
42807.2 62683.1 lineto
42452.8 62683.1 lineto
42452.8 62210.7 lineto
poly1
0 0 0 setrgbcolor
newpath
42452.8 63076.9 moveto
42807.2 63076.9 lineto
42807.2 63549.3 lineto
42452.8 63549.3 lineto
42452.8 63076.9 lineto
poly1
0 0 0 setrgbcolor
newpath
23952.8 62210.7 moveto
24307.2 62210.7 lineto
24307.2 62683.1 lineto
23952.8 62683.1 lineto
23952.8 62210.7 lineto
poly1
0 0 0 setrgbcolor
newpath
23952.8 63076.9 moveto
24307.2 63076.9 lineto
24307.2 63549.3 lineto
23952.8 63549.3 lineto
23952.8 63076.9 lineto
poly1
0 0 0 setrgbcolor
newpath
23030 61980 moveto
23030 62780 lineto
22230 62780 lineto
22230 61980 lineto
23030 61980 lineto
poly1
0 0 0 setrgbcolor
800 setlinewidth
newpath
22630 61380 moveto
22630 61380 lineto
stroke
0 0 0 setrgbcolor
393.701 setlinewidth
newpath
93917.4 44592.6 moveto
93630 44880 lineto
stroke
0 0 0 setrgbcolor
newpath
58130 44880 moveto
40630 44880 lineto
stroke
0 0 0 setrgbcolor
newpath
76130 44880 moveto
58130 44880 lineto
stroke
0 0 0 setrgbcolor
newpath
93630 44880 moveto
76130 44880 lineto
stroke
0 0 0 setrgbcolor
newpath
40630 44880 moveto
39917.4 44167.4 lineto
stroke
0 0 0 setrgbcolor
newpath
39917.4 44167.4 moveto
39917.4 43380 lineto
stroke
0 0 0 setrgbcolor
newpath
93917.4 43380 moveto
93917.4 44592.6 lineto
stroke
0 0 0 setrgbcolor
newpath
57917.4 44880 moveto
58130 44880 lineto
stroke
0 0 0 setrgbcolor
newpath
57917.4 43380 moveto
57917.4 44880 lineto
stroke
0 0 0 setrgbcolor
newpath
75917.4 44880 moveto
76130 44880 lineto
stroke
0 0 0 setrgbcolor
newpath
75917.4 43380 moveto
75917.4 44880 lineto
stroke
0 0 0 setrgbcolor
newpath
58130 38880 moveto
40630 38880 lineto
stroke
0 0 0 setrgbcolor
newpath
76130 38880 moveto
58130 38880 lineto
stroke
0 0 0 setrgbcolor
newpath
40630 38880 moveto
39917.4 39592.6 lineto
stroke
0 0 0 setrgbcolor
newpath
39917.4 39592.6 moveto
39917.4 40380 lineto
stroke
0 0 0 setrgbcolor
newpath
93917.4 39667.4 moveto
93130 38880 lineto
stroke
0 0 0 setrgbcolor
newpath
93130 38880 moveto
76130 38880 lineto
stroke
0 0 0 setrgbcolor
newpath
93917.4 40380 moveto
93917.4 39667.4 lineto
stroke
0 0 0 setrgbcolor
newpath
57917.4 38880 moveto
58130 38880 lineto
stroke
0 0 0 setrgbcolor
newpath
57917.4 40380 moveto
57917.4 38880 lineto
stroke
0 0 0 setrgbcolor
newpath
75917.4 38880 moveto
76130 38880 lineto
stroke
0 0 0 setrgbcolor
newpath
75917.4 40380 moveto
75917.4 38880 lineto
stroke
0 0 0 setrgbcolor
newpath
96630 40380 moveto
93917.4 40380 lineto
stroke
0 0 0 setrgbcolor
newpath
97630 40380 moveto
96630 40380 lineto
stroke
0 0 0 setrgbcolor
newpath
98130 40380 moveto
97630 40380 lineto
stroke
0 0 0 setrgbcolor
newpath
93917.4 43380 moveto
98130 43380 lineto
stroke
0 0 0 setrgbcolor
newpath
23130 38880 moveto
22630 39380 lineto
stroke
0 0 0 setrgbcolor
newpath
22630 39380 moveto
22630 41380 lineto
stroke
0 0 0 setrgbcolor
newpath
40630 38880 moveto
23130 38880 lineto
stroke
0 0 0 setrgbcolor
newpath
96630 41380 moveto
96630 40380 lineto
stroke
0 0 0 setrgbcolor
newpath
98130 43380 moveto
98130 40380 lineto
stroke
0 0 0 setrgbcolor
newpath
98130 52880 moveto
98130 49880 lineto
stroke
0 0 0 setrgbcolor
newpath
96630 50880 moveto
96630 49880 lineto
stroke
0 0 0 setrgbcolor
newpath
40630 48380 moveto
23130 48380 lineto
stroke
0 0 0 setrgbcolor
newpath
22630 48880 moveto
22630 50880 lineto
stroke
0 0 0 setrgbcolor
newpath
23130 48380 moveto
22630 48880 lineto
stroke
0 0 0 setrgbcolor
newpath
93917.4 52880 moveto
98130 52880 lineto
stroke
0 0 0 setrgbcolor
newpath
98130 49880 moveto
97630 49880 lineto
stroke
0 0 0 setrgbcolor
newpath
97630 49880 moveto
96630 49880 lineto
stroke
0 0 0 setrgbcolor
newpath
96630 49880 moveto
93917.4 49880 lineto
stroke
0 0 0 setrgbcolor
newpath
75917.4 49880 moveto
75917.4 48380 lineto
stroke
0 0 0 setrgbcolor
newpath
75917.4 48380 moveto
76130 48380 lineto
stroke
0 0 0 setrgbcolor
newpath
57917.4 49880 moveto
57917.4 48380 lineto
stroke
0 0 0 setrgbcolor
newpath
57917.4 48380 moveto
58130 48380 lineto
stroke
0 0 0 setrgbcolor
newpath
93917.4 49880 moveto
93917.4 49167.4 lineto
stroke
0 0 0 setrgbcolor
newpath
93130 48380 moveto
76130 48380 lineto
stroke
0 0 0 setrgbcolor
newpath
93917.4 49167.4 moveto
93130 48380 lineto
stroke
0 0 0 setrgbcolor
newpath
39917.4 49092.6 moveto
39917.4 49880 lineto
stroke
0 0 0 setrgbcolor
newpath
40630 48380 moveto
39917.4 49092.6 lineto
stroke
0 0 0 setrgbcolor
newpath
76130 48380 moveto
58130 48380 lineto
stroke
0 0 0 setrgbcolor
newpath
58130 48380 moveto
40630 48380 lineto
stroke
0 0 0 setrgbcolor
newpath
75917.4 52880 moveto
75917.4 54380 lineto
stroke
0 0 0 setrgbcolor
newpath
75917.4 54380 moveto
76130 54380 lineto
stroke
0 0 0 setrgbcolor
newpath
57917.4 52880 moveto
57917.4 54380 lineto
stroke
0 0 0 setrgbcolor
newpath
57917.4 54380 moveto
58130 54380 lineto
stroke
0 0 0 setrgbcolor
newpath
93917.4 52880 moveto
93917.4 54092.6 lineto
stroke
0 0 0 setrgbcolor
newpath
39917.4 53667.4 moveto
39917.4 52880 lineto
stroke
0 0 0 setrgbcolor
newpath
40630 54380 moveto
39917.4 53667.4 lineto
stroke
0 0 0 setrgbcolor
newpath
93630 54380 moveto
76130 54380 lineto
stroke
0 0 0 setrgbcolor
newpath
76130 54380 moveto
58130 54380 lineto
stroke
0 0 0 setrgbcolor
newpath
58130 54380 moveto
40630 54380 lineto
stroke
0 0 0 setrgbcolor
newpath
93917.4 54092.6 moveto
93630 54380 lineto
stroke
0 0 0 setrgbcolor
newpath
93917.4 74092.6 moveto
93630 74380 lineto
stroke
0 0 0 setrgbcolor
newpath
58130 74380 moveto
40630 74380 lineto
stroke
0 0 0 setrgbcolor
newpath
76130 74380 moveto
58130 74380 lineto
stroke
0 0 0 setrgbcolor
newpath
93630 74380 moveto
76130 74380 lineto
stroke
0 0 0 setrgbcolor
newpath
40630 74380 moveto
39917.4 73667.4 lineto
stroke
0 0 0 setrgbcolor
newpath
39917.4 73667.4 moveto
39917.4 72880 lineto
stroke
0 0 0 setrgbcolor
newpath
93917.4 72880 moveto
93917.4 74092.6 lineto
stroke
0 0 0 setrgbcolor
newpath
57917.4 74380 moveto
58130 74380 lineto
stroke
0 0 0 setrgbcolor
newpath
57917.4 72880 moveto
57917.4 74380 lineto
stroke
0 0 0 setrgbcolor
newpath
75917.4 74380 moveto
76130 74380 lineto
stroke
0 0 0 setrgbcolor
newpath
75917.4 72880 moveto
75917.4 74380 lineto
stroke
0 0 0 setrgbcolor
newpath
58130 68380 moveto
40630 68380 lineto
stroke
0 0 0 setrgbcolor
newpath
76130 68380 moveto
58130 68380 lineto
stroke
0 0 0 setrgbcolor
newpath
40630 68380 moveto
39917.4 69092.6 lineto
stroke
0 0 0 setrgbcolor
newpath
39917.4 69092.6 moveto
39917.4 69880 lineto
stroke
0 0 0 setrgbcolor
newpath
93917.4 69167.4 moveto
93130 68380 lineto
stroke
0 0 0 setrgbcolor
newpath
93130 68380 moveto
76130 68380 lineto
stroke
0 0 0 setrgbcolor
newpath
93917.4 69880 moveto
93917.4 69167.4 lineto
stroke
0 0 0 setrgbcolor
newpath
57917.4 68380 moveto
58130 68380 lineto
stroke
0 0 0 setrgbcolor
newpath
57917.4 69880 moveto
57917.4 68380 lineto
stroke
0 0 0 setrgbcolor
newpath
75917.4 68380 moveto
76130 68380 lineto
stroke
0 0 0 setrgbcolor
newpath
75917.4 69880 moveto
75917.4 68380 lineto
stroke
0 0 0 setrgbcolor
newpath
96630 69880 moveto
93917.4 69880 lineto
stroke
0 0 0 setrgbcolor
newpath
97630 69880 moveto
96630 69880 lineto
stroke
0 0 0 setrgbcolor
newpath
98130 69880 moveto
97630 69880 lineto
stroke
0 0 0 setrgbcolor
newpath
93917.4 72880 moveto
98130 72880 lineto
stroke
0 0 0 setrgbcolor
newpath
23130 68380 moveto
22630 68880 lineto
stroke
0 0 0 setrgbcolor
newpath
22630 68880 moveto
22630 70880 lineto
stroke
0 0 0 setrgbcolor
newpath
40630 68380 moveto
23130 68380 lineto
stroke
0 0 0 setrgbcolor
newpath
96630 70880 moveto
96630 69880 lineto
stroke
0 0 0 setrgbcolor
newpath
98130 72880 moveto
98130 69880 lineto
stroke
0 0 0 setrgbcolor
newpath
98130 63380 moveto
98130 60380 lineto
stroke
0 0 0 setrgbcolor
newpath
96630 61380 moveto
96630 60380 lineto
stroke
0 0 0 setrgbcolor
newpath
40630 58880 moveto
23130 58880 lineto
stroke
0 0 0 setrgbcolor
newpath
22630 59380 moveto
22630 61380 lineto
stroke
0 0 0 setrgbcolor
newpath
23130 58880 moveto
22630 59380 lineto
stroke
0 0 0 setrgbcolor
newpath
93917.4 63380 moveto
98130 63380 lineto
stroke
0 0 0 setrgbcolor
newpath
98130 60380 moveto
97630 60380 lineto
stroke
0 0 0 setrgbcolor
newpath
97630 60380 moveto
96630 60380 lineto
stroke
0 0 0 setrgbcolor
newpath
96630 60380 moveto
93917.4 60380 lineto
stroke
0 0 0 setrgbcolor
newpath
75917.4 60380 moveto
75917.4 58880 lineto
stroke
0 0 0 setrgbcolor
newpath
75917.4 58880 moveto
76130 58880 lineto
stroke
0 0 0 setrgbcolor
newpath
57917.4 60380 moveto
57917.4 58880 lineto
stroke
0 0 0 setrgbcolor
newpath
57917.4 58880 moveto
58130 58880 lineto
stroke
0 0 0 setrgbcolor
newpath
93917.4 60380 moveto
93917.4 59667.4 lineto
stroke
0 0 0 setrgbcolor
newpath
93130 58880 moveto
76130 58880 lineto
stroke
0 0 0 setrgbcolor
newpath
93917.4 59667.4 moveto
93130 58880 lineto
stroke
0 0 0 setrgbcolor
newpath
39917.4 59592.6 moveto
39917.4 60380 lineto
stroke
0 0 0 setrgbcolor
newpath
40630 58880 moveto
39917.4 59592.6 lineto
stroke
0 0 0 setrgbcolor
newpath
76130 58880 moveto
58130 58880 lineto
stroke
0 0 0 setrgbcolor
newpath
58130 58880 moveto
40630 58880 lineto
stroke
0 0 0 setrgbcolor
newpath
75917.4 63380 moveto
75917.4 64880 lineto
stroke
0 0 0 setrgbcolor
newpath
75917.4 64880 moveto
76130 64880 lineto
stroke
0 0 0 setrgbcolor
newpath
57917.4 63380 moveto
57917.4 64880 lineto
stroke
0 0 0 setrgbcolor
newpath
57917.4 64880 moveto
58130 64880 lineto
stroke
0 0 0 setrgbcolor
newpath
93917.4 63380 moveto
93917.4 64592.6 lineto
stroke
0 0 0 setrgbcolor
newpath
39917.4 64167.4 moveto
39917.4 63380 lineto
stroke
0 0 0 setrgbcolor
newpath
40630 64880 moveto
39917.4 64167.4 lineto
stroke
0 0 0 setrgbcolor
newpath
93630 64880 moveto
76130 64880 lineto
stroke
0 0 0 setrgbcolor
newpath
76130 64880 moveto
58130 64880 lineto
stroke
0 0 0 setrgbcolor
newpath
58130 64880 moveto
40630 64880 lineto
stroke
0 0 0 setrgbcolor
newpath
93917.4 64592.6 moveto
93630 64880 lineto
stroke
0 0 0 setrgbcolor
newpath
92342.6 40380 moveto
87917.4 40380 lineto
stroke
0 0 0 setrgbcolor
newpath
92342.6 49880 moveto
87917.4 49880 lineto
stroke
0 0 0 setrgbcolor
newpath
92342.6 69880 moveto
87917.4 69880 lineto
stroke
0 0 0 setrgbcolor
newpath
92342.6 60380 moveto
87917.4 60380 lineto
stroke
0 0 0 setrgbcolor
newpath
74342.6 40380 moveto
69917.4 40380 lineto
stroke
0 0 0 setrgbcolor
newpath
74342.6 49880 moveto
69917.4 49880 lineto
stroke
0 0 0 setrgbcolor
newpath
74342.6 69880 moveto
69917.4 69880 lineto
stroke
0 0 0 setrgbcolor
newpath
74342.6 60380 moveto
69917.4 60380 lineto
stroke
0 0 0 setrgbcolor
newpath
56342.6 40380 moveto
51917.4 40380 lineto
stroke
0 0 0 setrgbcolor
newpath
56342.6 49880 moveto
51917.4 49880 lineto
stroke
0 0 0 setrgbcolor
newpath
56342.6 69880 moveto
51917.4 69880 lineto
stroke
0 0 0 setrgbcolor
newpath
56342.6 60380 moveto
51917.4 60380 lineto
stroke
0 0 0 setrgbcolor
newpath
38342.6 40380 moveto
33917.4 40380 lineto
stroke
0 0 0 setrgbcolor
newpath
38342.6 49880 moveto
33917.4 49880 lineto
stroke
0 0 0 setrgbcolor
newpath
38342.6 69880 moveto
33917.4 69880 lineto
stroke
0 0 0 setrgbcolor
newpath
38342.6 60380 moveto
33917.4 60380 lineto
stroke
0 0 0 setrgbcolor
newpath
92342.6 43380 moveto
87917.4 43380 lineto
stroke
0 0 0 setrgbcolor
newpath
92342.6 52880 moveto
87917.4 52880 lineto
stroke
0 0 0 setrgbcolor
newpath
92342.6 72880 moveto
87917.4 72880 lineto
stroke
0 0 0 setrgbcolor
newpath
92342.6 63380 moveto
87917.4 63380 lineto
stroke
0 0 0 setrgbcolor
newpath
74342.6 43380 moveto
69917.4 43380 lineto
stroke
0 0 0 setrgbcolor
newpath
74342.6 52880 moveto
69917.4 52880 lineto
stroke
0 0 0 setrgbcolor
newpath
74342.6 72880 moveto
69917.4 72880 lineto
stroke
0 0 0 setrgbcolor
newpath
74342.6 63380 moveto
69917.4 63380 lineto
stroke
0 0 0 setrgbcolor
newpath
56342.6 43380 moveto
51917.4 43380 lineto
stroke
0 0 0 setrgbcolor
newpath
56342.6 52880 moveto
51917.4 52880 lineto
stroke
0 0 0 setrgbcolor
newpath
56342.6 72880 moveto
51917.4 72880 lineto
stroke
0 0 0 setrgbcolor
newpath
56342.6 63380 moveto
51917.4 63380 lineto
stroke
0 0 0 setrgbcolor
newpath
38342.6 43380 moveto
33917.4 43380 lineto
stroke
0 0 0 setrgbcolor
newpath
38342.6 52880 moveto
33917.4 52880 lineto
stroke
0 0 0 setrgbcolor
newpath
38342.6 72880 moveto
33917.4 72880 lineto
stroke
0 0 0 setrgbcolor
newpath
38342.6 63380 moveto
33917.4 63380 lineto
stroke
0 0 0 setrgbcolor
newpath
86342.6 40380 moveto
81917.4 40380 lineto
stroke
0 0 0 setrgbcolor
newpath
86342.6 49880 moveto
81917.4 49880 lineto
stroke
0 0 0 setrgbcolor
newpath
86342.6 69880 moveto
81917.4 69880 lineto
stroke
0 0 0 setrgbcolor
newpath
86342.6 60380 moveto
81917.4 60380 lineto
stroke
0 0 0 setrgbcolor
newpath
68342.6 40380 moveto
63917.4 40380 lineto
stroke
0 0 0 setrgbcolor
newpath
68342.6 49880 moveto
63917.4 49880 lineto
stroke
0 0 0 setrgbcolor
newpath
68342.6 69880 moveto
63917.4 69880 lineto
stroke
0 0 0 setrgbcolor
newpath
68342.6 60380 moveto
63917.4 60380 lineto
stroke
0 0 0 setrgbcolor
newpath
46130 40380 moveto
45917.4 40380 lineto
stroke
0 0 0 setrgbcolor
newpath
50342.6 40380 moveto
46130 40380 lineto
stroke
0 0 0 setrgbcolor
newpath
50342.6 49880 moveto
46130 49880 lineto
stroke
0 0 0 setrgbcolor
newpath
46130 49880 moveto
45917.4 49880 lineto
stroke
0 0 0 setrgbcolor
newpath
46130 69880 moveto
45917.4 69880 lineto
stroke
0 0 0 setrgbcolor
newpath
50342.6 69880 moveto
46130 69880 lineto
stroke
0 0 0 setrgbcolor
newpath
50342.6 60380 moveto
46130 60380 lineto
stroke
0 0 0 setrgbcolor
newpath
46130 60380 moveto
45917.4 60380 lineto
stroke
0 0 0 setrgbcolor
newpath
32342.6 40380 moveto
27917.4 40380 lineto
stroke
0 0 0 setrgbcolor
newpath
32342.6 49880 moveto
27917.4 49880 lineto
stroke
0 0 0 setrgbcolor
newpath
32342.6 69880 moveto
27917.4 69880 lineto
stroke
0 0 0 setrgbcolor
newpath
32342.6 60380 moveto
27917.4 60380 lineto
stroke
0 0 0 setrgbcolor
newpath
86342.6 43380 moveto
81917.4 43380 lineto
stroke
0 0 0 setrgbcolor
newpath
86342.6 52880 moveto
81917.4 52880 lineto
stroke
0 0 0 setrgbcolor
newpath
86342.6 72880 moveto
81917.4 72880 lineto
stroke
0 0 0 setrgbcolor
newpath
86342.6 63380 moveto
81917.4 63380 lineto
stroke
0 0 0 setrgbcolor
newpath
68342.6 43380 moveto
63917.4 43380 lineto
stroke
0 0 0 setrgbcolor
newpath
68342.6 52880 moveto
63917.4 52880 lineto
stroke
0 0 0 setrgbcolor
newpath
68342.6 72880 moveto
63917.4 72880 lineto
stroke
0 0 0 setrgbcolor
newpath
68342.6 63380 moveto
63917.4 63380 lineto
stroke
0 0 0 setrgbcolor
newpath
50342.6 43380 moveto
45917.4 43380 lineto
stroke
0 0 0 setrgbcolor
newpath
50342.6 52880 moveto
45917.4 52880 lineto
stroke
0 0 0 setrgbcolor
newpath
50342.6 72880 moveto
45917.4 72880 lineto
stroke
0 0 0 setrgbcolor
newpath
50342.6 63380 moveto
45917.4 63380 lineto
stroke
0 0 0 setrgbcolor
newpath
32342.6 43380 moveto
27917.4 43380 lineto
stroke
0 0 0 setrgbcolor
newpath
32342.6 52880 moveto
27917.4 52880 lineto
stroke
0 0 0 setrgbcolor
newpath
32342.6 72880 moveto
27917.4 72880 lineto
stroke
0 0 0 setrgbcolor
newpath
32342.6 63380 moveto
27917.4 63380 lineto
stroke
0 0 0 setrgbcolor
newpath
78196.9 40380 moveto
78130 40446.9 lineto
stroke
0 0 0 setrgbcolor
newpath
80342.6 40380 moveto
78196.9 40380 lineto
stroke
0 0 0 setrgbcolor
newpath
80342.6 49880 moveto
78196.9 49880 lineto
stroke
0 0 0 setrgbcolor
newpath
78196.9 49880 moveto
78130 49946.9 lineto
stroke
0 0 0 setrgbcolor
newpath
78196.9 69880 moveto
78130 69946.9 lineto
stroke
0 0 0 setrgbcolor
newpath
80342.6 69880 moveto
78196.9 69880 lineto
stroke
0 0 0 setrgbcolor
newpath
80342.6 60380 moveto
78196.9 60380 lineto
stroke
0 0 0 setrgbcolor
newpath
78196.9 60380 moveto
78130 60446.9 lineto
stroke
0 0 0 setrgbcolor
newpath
60196.9 40380 moveto
60130 40446.9 lineto
stroke
0 0 0 setrgbcolor
newpath
62342.6 40380 moveto
60196.9 40380 lineto
stroke
0 0 0 setrgbcolor
newpath
62342.6 49880 moveto
60196.9 49880 lineto
stroke
0 0 0 setrgbcolor
newpath
60196.9 49880 moveto
60130 49946.9 lineto
stroke
0 0 0 setrgbcolor
newpath
60196.9 69880 moveto
60130 69946.9 lineto
stroke
0 0 0 setrgbcolor
newpath
62342.6 69880 moveto
60196.9 69880 lineto
stroke
0 0 0 setrgbcolor
newpath
62342.6 60380 moveto
60196.9 60380 lineto
stroke
0 0 0 setrgbcolor
newpath
60196.9 60380 moveto
60130 60446.9 lineto
stroke
0 0 0 setrgbcolor
newpath
42696.9 40380 moveto
42630 40446.9 lineto
stroke
0 0 0 setrgbcolor
newpath
44342.6 40380 moveto
42696.9 40380 lineto
stroke
0 0 0 setrgbcolor
newpath
44342.6 49880 moveto
42696.9 49880 lineto
stroke
0 0 0 setrgbcolor
newpath
42696.9 49880 moveto
42630 49946.9 lineto
stroke
0 0 0 setrgbcolor
newpath
42696.9 69880 moveto
42630 69946.9 lineto
stroke
0 0 0 setrgbcolor
newpath
44342.6 69880 moveto
42696.9 69880 lineto
stroke
0 0 0 setrgbcolor
newpath
44342.6 60380 moveto
42696.9 60380 lineto
stroke
0 0 0 setrgbcolor
newpath
42696.9 60380 moveto
42630 60446.9 lineto
stroke
0 0 0 setrgbcolor
newpath
24196.9 40380 moveto
24130 40446.9 lineto
stroke
0 0 0 setrgbcolor
newpath
26342.6 40380 moveto
24196.9 40380 lineto
stroke
0 0 0 setrgbcolor
newpath
26342.6 49880 moveto
24196.9 49880 lineto
stroke
0 0 0 setrgbcolor
newpath
24196.9 49880 moveto
24130 49946.9 lineto
stroke
0 0 0 setrgbcolor
newpath
24196.9 69880 moveto
24130 69946.9 lineto
stroke
0 0 0 setrgbcolor
newpath
26342.6 69880 moveto
24196.9 69880 lineto
stroke
0 0 0 setrgbcolor
newpath
26342.6 60380 moveto
24196.9 60380 lineto
stroke
0 0 0 setrgbcolor
newpath
24196.9 60380 moveto
24130 60446.9 lineto
stroke
0 0 0 setrgbcolor
newpath
78196.9 43380 moveto
78130 43313.1 lineto
stroke
0 0 0 setrgbcolor
newpath
80342.6 43380 moveto
78196.9 43380 lineto
stroke
0 0 0 setrgbcolor
newpath
80342.6 52880 moveto
78196.9 52880 lineto
stroke
0 0 0 setrgbcolor
newpath
78196.9 52880 moveto
78130 52813.1 lineto
stroke
0 0 0 setrgbcolor
newpath
78196.9 72880 moveto
78130 72813.1 lineto
stroke
0 0 0 setrgbcolor
newpath
80342.6 72880 moveto
78196.9 72880 lineto
stroke
0 0 0 setrgbcolor
newpath
80342.6 63380 moveto
78196.9 63380 lineto
stroke
0 0 0 setrgbcolor
newpath
78196.9 63380 moveto
78130 63313.1 lineto
stroke
0 0 0 setrgbcolor
newpath
60196.9 43380 moveto
60130 43313.1 lineto
stroke
0 0 0 setrgbcolor
newpath
62342.6 43380 moveto
60196.9 43380 lineto
stroke
0 0 0 setrgbcolor
newpath
62342.6 52880 moveto
60196.9 52880 lineto
stroke
0 0 0 setrgbcolor
newpath
60196.9 52880 moveto
60130 52813.1 lineto
stroke
0 0 0 setrgbcolor
newpath
60196.9 72880 moveto
60130 72813.1 lineto
stroke
0 0 0 setrgbcolor
newpath
62342.6 72880 moveto
60196.9 72880 lineto
stroke
0 0 0 setrgbcolor
newpath
62342.6 63380 moveto
60196.9 63380 lineto
stroke
0 0 0 setrgbcolor
newpath
60196.9 63380 moveto
60130 63313.1 lineto
stroke
0 0 0 setrgbcolor
newpath
42630 43380 moveto
42630 43313.1 lineto
stroke
0 0 0 setrgbcolor
newpath
44342.6 43380 moveto
42630 43380 lineto
stroke
0 0 0 setrgbcolor
newpath
44342.6 52880 moveto
42630 52880 lineto
stroke
0 0 0 setrgbcolor
newpath
42630 52880 moveto
42630 52813.1 lineto
stroke
0 0 0 setrgbcolor
newpath
42630 72880 moveto
42630 72813.1 lineto
stroke
0 0 0 setrgbcolor
newpath
44342.6 72880 moveto
42630 72880 lineto
stroke
0 0 0 setrgbcolor
newpath
44342.6 63380 moveto
42630 63380 lineto
stroke
0 0 0 setrgbcolor
newpath
42630 63380 moveto
42630 63313.1 lineto
stroke
0 0 0 setrgbcolor
newpath
24196.9 43380 moveto
24130 43313.1 lineto
stroke
0 0 0 setrgbcolor
newpath
26342.6 43380 moveto
24196.9 43380 lineto
stroke
0 0 0 setrgbcolor
newpath
26342.6 52880 moveto
24196.9 52880 lineto
stroke
0 0 0 setrgbcolor
newpath
24196.9 52880 moveto
24130 52813.1 lineto
stroke
0 0 0 setrgbcolor
newpath
24196.9 72880 moveto
24130 72813.1 lineto
stroke
0 0 0 setrgbcolor
newpath
26342.6 72880 moveto
24196.9 72880 lineto
stroke
0 0 0 setrgbcolor
newpath
26342.6 63380 moveto
24196.9 63380 lineto
stroke
0 0 0 setrgbcolor
newpath
24196.9 63380 moveto
24130 63313.1 lineto
stroke
0 0 0 setrgbcolor
newpath
78130 41880 moveto
78130 42446.9 lineto
stroke
0 0 0 setrgbcolor
newpath
78130 41313.1 moveto
78130 41880 lineto
stroke
0 0 0 setrgbcolor
newpath
42630 42446.9 moveto
42630 41880 lineto
stroke
0 0 0 setrgbcolor
newpath
42630 41313.1 moveto
42630 41880 lineto
stroke
0 0 0 setrgbcolor
newpath
60130 42446.9 moveto
60130 41880 lineto
stroke
0 0 0 setrgbcolor
newpath
60130 41313.1 moveto
60130 41880 lineto
stroke
0 0 0 setrgbcolor
newpath
24130 41880 moveto
24130 42446.9 lineto
stroke
0 0 0 setrgbcolor
newpath
24130 41880 moveto
24130 41313.1 lineto
stroke
0 0 0 setrgbcolor
newpath
42630 41880 moveto
24130 41880 lineto
stroke
0 0 0 setrgbcolor
newpath
42630 41880 moveto
60130 41880 lineto
stroke
0 0 0 setrgbcolor
newpath
60130 41880 moveto
78130 41880 lineto
stroke
0 0 0 setrgbcolor
newpath
95130 41880 moveto
95630 42380 lineto
stroke
0 0 0 setrgbcolor
newpath
78130 41880 moveto
95130 41880 lineto
stroke
0 0 0 setrgbcolor
newpath
22696.9 42446.9 moveto
22630 42380 lineto
stroke
0 0 0 setrgbcolor
newpath
24130 42446.9 moveto
22696.9 42446.9 lineto
stroke
0 0 0 setrgbcolor
newpath
95630 42380 moveto
96630 42380 lineto
stroke
0 0 0 setrgbcolor
newpath
95630 51880 moveto
96630 51880 lineto
stroke
0 0 0 setrgbcolor
newpath
24130 51946.9 moveto
22696.9 51946.9 lineto
stroke
0 0 0 setrgbcolor
newpath
22696.9 51946.9 moveto
22630 51880 lineto
stroke
0 0 0 setrgbcolor
newpath
78130 51380 moveto
95130 51380 lineto
stroke
0 0 0 setrgbcolor
newpath
95130 51380 moveto
95630 51880 lineto
stroke
0 0 0 setrgbcolor
newpath
60130 51380 moveto
78130 51380 lineto
stroke
0 0 0 setrgbcolor
newpath
42630 51380 moveto
60130 51380 lineto
stroke
0 0 0 setrgbcolor
newpath
42630 51380 moveto
24130 51380 lineto
stroke
0 0 0 setrgbcolor
newpath
24130 51380 moveto
24130 50813.1 lineto
stroke
0 0 0 setrgbcolor
newpath
24130 51380 moveto
24130 51946.9 lineto
stroke
0 0 0 setrgbcolor
newpath
60130 50813.1 moveto
60130 51380 lineto
stroke
0 0 0 setrgbcolor
newpath
60130 51946.9 moveto
60130 51380 lineto
stroke
0 0 0 setrgbcolor
newpath
42630 50813.1 moveto
42630 51380 lineto
stroke
0 0 0 setrgbcolor
newpath
42630 51946.9 moveto
42630 51380 lineto
stroke
0 0 0 setrgbcolor
newpath
78130 50813.1 moveto
78130 51380 lineto
stroke
0 0 0 setrgbcolor
newpath
78130 51380 moveto
78130 51946.9 lineto
stroke
0 0 0 setrgbcolor
newpath
78130 71380 moveto
78130 71946.9 lineto
stroke
0 0 0 setrgbcolor
newpath
78130 70813.1 moveto
78130 71380 lineto
stroke
0 0 0 setrgbcolor
newpath
42630 71946.9 moveto
42630 71380 lineto
stroke
0 0 0 setrgbcolor
newpath
42630 70813.1 moveto
42630 71380 lineto
stroke
0 0 0 setrgbcolor
newpath
60130 71946.9 moveto
60130 71380 lineto
stroke
0 0 0 setrgbcolor
newpath
60130 70813.1 moveto
60130 71380 lineto
stroke
0 0 0 setrgbcolor
newpath
24130 71380 moveto
24130 71946.9 lineto
stroke
0 0 0 setrgbcolor
newpath
24130 71380 moveto
24130 70813.1 lineto
stroke
0 0 0 setrgbcolor
newpath
42630 71380 moveto
24130 71380 lineto
stroke
0 0 0 setrgbcolor
newpath
42630 71380 moveto
60130 71380 lineto
stroke
0 0 0 setrgbcolor
newpath
60130 71380 moveto
78130 71380 lineto
stroke
0 0 0 setrgbcolor
newpath
95130 71380 moveto
95630 71880 lineto
stroke
0 0 0 setrgbcolor
newpath
78130 71380 moveto
95130 71380 lineto
stroke
0 0 0 setrgbcolor
newpath
22696.9 71946.9 moveto
22630 71880 lineto
stroke
0 0 0 setrgbcolor
newpath
24130 71946.9 moveto
22696.9 71946.9 lineto
stroke
0 0 0 setrgbcolor
newpath
95630 71880 moveto
96630 71880 lineto
stroke
0 0 0 setrgbcolor
newpath
95630 62380 moveto
96630 62380 lineto
stroke
0 0 0 setrgbcolor
newpath
24130 62446.9 moveto
22696.9 62446.9 lineto
stroke
0 0 0 setrgbcolor
newpath
22696.9 62446.9 moveto
22630 62380 lineto
stroke
0 0 0 setrgbcolor
newpath
78130 61880 moveto
95130 61880 lineto
stroke
0 0 0 setrgbcolor
newpath
95130 61880 moveto
95630 62380 lineto
stroke
0 0 0 setrgbcolor
newpath
60130 61880 moveto
78130 61880 lineto
stroke
0 0 0 setrgbcolor
newpath
42630 61880 moveto
60130 61880 lineto
stroke
0 0 0 setrgbcolor
newpath
42630 61880 moveto
24130 61880 lineto
stroke
0 0 0 setrgbcolor
newpath
24130 61880 moveto
24130 61313.1 lineto
stroke
0 0 0 setrgbcolor
newpath
24130 61880 moveto
24130 62446.9 lineto
stroke
0 0 0 setrgbcolor
newpath
60130 61313.1 moveto
60130 61880 lineto
stroke
0 0 0 setrgbcolor
newpath
60130 62446.9 moveto
60130 61880 lineto
stroke
0 0 0 setrgbcolor
newpath
42630 61313.1 moveto
42630 61880 lineto
stroke
0 0 0 setrgbcolor
newpath
42630 62446.9 moveto
42630 61880 lineto
stroke
0 0 0 setrgbcolor
newpath
78130 61313.1 moveto
78130 61880 lineto
stroke
0 0 0 setrgbcolor
newpath
78130 61880 moveto
78130 62446.9 lineto
stroke
1 1 1 setrgbcolor
0 setlinewidth
22630 42380 68.8976 cir1
39.3701 setlinewidth
0 setlinewidth
22630 41380 68.8976 cir1
39.3701 setlinewidth
0 setlinewidth
22630 51880 68.8976 cir1
39.3701 setlinewidth
0 setlinewidth
22630 50880 68.8976 cir1
39.3701 setlinewidth
0 setlinewidth
22630 71880 68.8976 cir1
39.3701 setlinewidth
0 setlinewidth
22630 70880 68.8976 cir1
39.3701 setlinewidth
0 setlinewidth
96630 70880 68.8976 cir1
39.3701 setlinewidth
0 setlinewidth
96630 71880 68.8976 cir1
39.3701 setlinewidth
0 setlinewidth
96630 61380 68.8976 cir1
39.3701 setlinewidth
0 setlinewidth
96630 62380 68.8976 cir1
39.3701 setlinewidth
0 setlinewidth
22630 62380 68.8976 cir1
39.3701 setlinewidth
0 setlinewidth
22630 61380 68.8976 cir1
39.3701 setlinewidth
0 0 0 setrgbcolor
showpage
grestore
%%EOF
